# Blender v2.79 (sub 0) OBJ File: 'axes.blend'
# www.blender.org
mtllib axes.mtl
o Cube_Cube.005
v 0.000000 0.000000 0.000000
v 0.000000 0.080000 0.000000
v 0.000000 0.000000 -0.080000
v 0.000000 0.080000 -0.080000
v 0.080000 0.000000 0.000000
v 0.080000 0.080000 0.000000
v 0.080000 0.000000 -0.080000
v 0.080000 0.080000 -0.080000
v 0.080000 0.080000 -0.080000
v 0.080000 0.000000 -0.080000
v 0.080000 0.000000 0.000000
v 0.080000 0.080000 0.000000
v 3.080000 0.080000 -0.080000
v 3.080000 0.000000 -0.080000
v 3.080000 0.000000 0.000000
v 3.080000 0.080000 0.000000
v 0.000000 0.080000 -3.080000
v 0.000000 0.000000 -3.080000
v 0.080000 0.000000 -3.080000
v 0.080000 0.080000 -3.080000
v 0.000000 3.080000 0.000000
v 0.000000 3.080000 -0.080000
v 0.080000 3.080000 -0.080000
v 0.080000 3.080000 0.000000
vt 0.793813 0.974683
vt 0.773195 0.974683
vt 0.773195 0.949367
vt 0.793813 0.949367
vt 0.773195 0.000000
vt 0.793813 0.000000
vt 0.000000 0.000000
vt 0.000000 0.000000
vt 0.000000 0.000000
vt 0.000000 0.000000
vt 0.814432 0.974683
vt 0.814432 0.949367
vt 0.835051 0.949367
vt 0.835051 0.974683
vt 0.814432 0.949367
vt 0.979381 0.000000
vt 1.000000 0.000000
vt 1.000000 0.949367
vt 0.979381 0.949367
vt 0.917525 0.949367
vt 0.896907 0.949367
vt 0.896907 0.000000
vt 0.917525 0.000000
vt 0.000000 0.000000
vt 0.000000 0.000000
vt 0.000000 0.000000
vt 0.000000 0.000000
vt 0.061856 1.000000
vt 0.041237 1.000000
vt 0.041237 0.974684
vt 0.061856 0.974684
vt 0.876288 0.949367
vt 0.855670 0.949367
vt 0.855669 0.000000
vt 0.876288 0.000000
vt 0.876288 0.949367
vt 0.876288 0.000000
vt 0.938144 0.949367
vt 0.917526 0.949367
vt 0.917525 0.000000
vt 0.938144 0.000000
vt 0.041237 1.000000
vt 0.020619 1.000000
vt 0.020619 0.974684
vt 0.041237 0.974684
vt 0.835051 0.000000
vt 0.855669 0.000000
vt 0.855669 0.949367
vt 0.835051 0.949367
vt 0.814432 0.000000
vt 0.958763 0.000000
vt 0.979381 0.000000
vt 0.979381 0.949367
vt 0.958763 0.949367
vt 0.020619 0.974684
vt 0.020619 1.000000
vt 0.000000 1.000000
vt 0.000000 0.974684
vt 0.000000 0.974684
vt 0.000000 0.949367
vt 0.814432 0.000000
vt 0.835051 0.000000
vt 0.938144 0.000000
vt 0.958763 0.949367
vt 0.938144 0.949367
vn -1.0000 0.0000 0.0000
vn 0.0000 0.0000 1.0000
vn 0.0000 -1.0000 0.0000
vn 1.0000 0.0000 0.0000
vn 0.0000 1.0000 0.0000
vn 0.0000 0.0000 -1.0000
usemtl Material.004
s off
f 1/1/1 2/2/1 4/3/1 3/4/1
f 3/4/1 4/3/1 17/5/1 18/6/1
f 8/7/2 6/8/2 12/9/2 9/10/2
f 5/11/2 6/12/2 2/13/2 1/14/2
f 3/4/3 7/15/3 5/11/3 1/1/3
f 6/16/4 8/17/4 23/18/4 24/19/4
f 9/20/5 12/21/5 16/22/5 13/23/5
f 7/24/2 8/7/2 9/10/2 10/25/2
f 6/8/2 5/26/2 11/27/2 12/9/2
f 5/26/2 7/24/2 10/25/2 11/27/2
f 14/28/4 13/29/4 16/30/4 15/31/4
f 10/32/6 9/33/6 13/34/6 14/35/6
f 12/21/2 11/36/2 15/37/2 16/22/2
f 11/38/3 10/39/3 14/40/3 15/41/3
f 18/42/6 17/43/6 20/44/6 19/45/6
f 8/46/4 7/47/4 19/48/4 20/49/4
f 7/15/3 3/4/3 18/6/3 19/50/3
f 4/51/5 8/52/5 20/53/5 17/54/5
f 23/55/5 22/56/5 21/57/5 24/58/5
f 4/3/1 2/2/1 21/59/1 22/60/1
f 2/13/2 6/12/2 24/61/2 21/62/2
f 8/63/6 4/51/6 22/64/6 23/65/6
o Text.002_CUText.002
v 0.179470 3.594000 -0.090177
v -0.254530 3.000000 -0.090177
v 0.360470 3.000000 -0.090177
v 0.360470 3.088000 -0.090177
v -0.073530 3.088000 -0.090177
v 0.360470 3.682000 -0.090177
v -0.227530 3.682000 -0.090177
v -0.227530 3.594000 -0.090177
v 0.179470 3.594000 0.024802
v -0.254530 3.000000 0.024802
v 0.360470 3.000000 0.024802
v 0.360470 3.088000 0.024802
v -0.073530 3.088000 0.024802
v 0.360470 3.682000 0.024802
v -0.227530 3.682000 0.024802
v -0.227530 3.594000 0.024802
vt 0.543737 0.575746
vt 0.543737 0.513672
vt 0.980919 0.513672
vt 0.846344 0.575746
vt 0.658237 0.932673
vt 0.523663 0.994747
vt 0.980919 0.932673
vt 0.980919 0.994747
vt 0.960619 0.575746
vt 0.523438 0.513672
vt 0.960619 0.513672
vt 0.658012 0.575746
vt 0.846119 0.932673
vt 0.980694 0.994747
vt 0.992413 0.811153
vt 0.535156 0.749079
vt 0.857838 0.749079
vt 0.523438 0.994747
vt 0.523438 0.932673
vt 1.000000 0.000000
vt 1.000000 0.518925
vt 0.914513 0.518925
vt 0.914513 0.000000
vt 0.341949 0.481075
vt 0.341949 0.661682
vt 0.256461 0.661682
vt 0.256461 0.481075
vt 0.085487 0.481075
vt 0.085487 1.000000
vt 0.000000 1.000000
vt 0.000000 0.481075
vt 0.085487 0.787125
vt 0.085487 0.531197
vt 0.170974 0.531197
vt 0.170974 0.787125
vt 0.170974 0.775889
vt 0.170974 0.531197
vt 0.256461 0.531197
vt 0.256461 0.775889
vt 0.085487 0.481075
vt 0.170974 0.481075
vt 0.427436 0.481075
vt 0.427436 0.650446
vt 0.341949 0.650446
vt 0.341949 0.481075
vt 0.170974 0.481075
vt 0.256461 0.481075
vn 0.0000 -0.0000 -1.0000
vn 0.0000 0.0000 1.0000
vn -0.8074 0.5899 0.0000
vn 0.0000 1.0000 0.0000
vn 0.8074 -0.5899 0.0000
vn 0.0000 -1.0000 0.0000
vn 1.0000 0.0000 0.0000
vn -1.0000 0.0000 0.0000
usemtl Material.001
s off
f 32/66/7 31/67/7 30/68/7
f 32/66/7 30/68/7 25/69/7
f 25/69/7 30/68/7 29/70/7
f 26/71/7 25/69/7 29/70/7
f 26/71/7 29/70/7 28/72/7
f 26/71/7 28/72/7 27/73/7
f 40/74/8 38/75/8 39/76/8
f 40/74/8 33/77/8 38/75/8
f 33/77/8 37/78/8 38/75/8
f 34/79/8 37/78/8 33/77/8
f 34/80/8 36/81/8 37/82/8
f 34/79/8 35/83/8 36/84/8
f 25/85/9 26/86/9 34/87/9 33/88/9
f 28/89/10 29/90/10 37/91/10 36/92/10
f 29/93/11 30/94/11 38/95/11 37/96/11
f 26/97/12 27/98/12 35/99/12 34/100/12
f 30/101/10 31/102/10 39/103/10 38/104/10
f 27/98/13 28/105/13 36/106/13 35/99/13
f 32/107/12 25/108/12 33/109/12 40/110/12
f 31/102/14 32/111/14 40/112/14 39/103/14
o Text.001_CUText.001
v 0.026524 -0.022247 -3.440308
v -0.156476 -0.022247 -3.675308
v -0.274476 -0.022247 -3.675308
v -0.021476 -0.022247 -3.354308
v -0.021476 -0.022247 -2.993308
v 0.076524 -0.022247 -2.993308
v 0.076524 -0.022247 -3.353308
v 0.329524 -0.022247 -3.675308
v 0.211524 -0.022247 -3.675308
v 0.026524 0.118540 -3.440308
v -0.156476 0.118540 -3.675308
v -0.274476 0.118540 -3.675308
v -0.021476 0.118540 -3.354308
v -0.021476 0.118540 -2.993308
v 0.076524 0.118540 -2.993308
v 0.076524 0.118540 -3.353308
v 0.329524 0.118540 -3.675308
v 0.211524 0.118540 -3.675308
vt 0.790563 0.330736
vt 1.000000 0.624826
vt 0.902318 0.624826
vt 0.750828 0.409527
vt 0.597682 0.624826
vt 0.500000 0.624826
vt 0.709437 0.329820
vt 0.790563 0.000000
vt 0.709437 0.000000
vt 0.209437 0.330737
vt 0.097682 0.624826
vt 0.000000 0.624826
vt 0.249172 0.409527
vt 0.500000 0.624826
vt 0.402318 0.624826
vt 0.290563 0.329820
vt 0.209437 0.000000
vt 0.290563 0.000000
vt 0.349636 0.624826
vt 0.349636 0.691697
vt 0.233091 0.691697
vt 0.233091 0.624826
vt 0.582727 0.624826
vt 0.582727 0.885051
vt 0.466182 0.885051
vt 0.466182 0.624826
vt 0.116545 0.624826
vt 0.116545 1.000000
vt 0.000000 1.000000
vt 0.000000 0.624826
vt 0.759695 0.753811
vt 0.699272 0.753811
vt 0.699272 0.624826
vt 0.759695 0.624826
vt 0.233091 0.624826
vt 0.233091 0.999280
vt 0.116545 0.999280
vt 0.116545 0.624826
vt 0.699272 0.624826
vt 0.699272 0.884699
vt 0.582727 0.884699
vt 0.582727 0.624826
vt 0.349636 0.965707
vt 0.233091 0.965707
vt 0.699272 0.753811
vt 0.749490 0.753811
vt 0.749490 0.882795
vt 0.699272 0.882795
vt 0.466182 0.624826
vt 0.466182 0.897706
vt 0.349636 0.897706
vt 0.349636 0.624826
vn 0.0000 -1.0000 0.0000
vn 0.0000 1.0000 -0.0000
vn 0.0000 0.0000 -1.0000
vn 1.0000 0.0000 0.0000
vn 0.7863 0.0000 0.6178
vn -0.7854 0.0000 0.6190
vn -1.0000 0.0000 0.0000
vn -0.7857 0.0000 -0.6186
vn 0.0000 0.0000 1.0000
vn 0.7890 0.0000 -0.6144
usemtl Material.003
s off
f 44/113/15 43/114/15 42/115/15
f 44/113/15 42/115/15 41/116/15
f 41/116/15 49/117/15 48/118/15
f 41/116/15 48/118/15 47/119/15
f 44/113/15 41/116/15 47/119/15
f 45/120/15 44/113/15 47/119/15
f 45/120/15 47/119/15 46/121/15
f 53/122/16 51/123/16 52/124/16
f 53/122/16 50/125/16 51/123/16
f 50/125/16 57/126/16 58/127/16
f 50/125/16 56/128/16 57/126/16
f 53/122/16 56/128/16 50/125/16
f 54/129/16 56/128/16 53/122/16
f 54/129/16 55/130/16 56/128/16
f 48/131/17 49/132/17 58/133/17 57/134/17
f 46/135/18 47/136/18 56/137/18 55/138/18
f 47/139/19 48/140/19 57/141/19 56/142/19
f 42/143/17 43/144/17 52/145/17 51/146/17
f 43/147/20 44/148/20 53/149/20 52/150/20
f 44/151/21 45/152/21 54/153/21 53/154/21
f 49/132/22 41/155/22 50/156/22 58/133/22
f 45/157/23 46/158/23 55/159/23 54/160/23
f 41/161/24 42/162/24 51/163/24 50/164/24
o Text_CUText
v 3.433407 -0.009744 -0.372506
v 3.315407 -0.009744 -0.372506
v 3.102407 -0.009744 -0.112506
v 2.888407 -0.009744 -0.372506
v 2.769407 -0.009744 -0.372506
v 3.042407 -0.009744 -0.043506
v 2.748407 -0.009744 0.309494
v 2.867407 -0.009744 0.309494
v 3.102407 -0.009744 0.027494
v 3.334407 -0.009744 0.309494
v 3.452407 -0.009744 0.309494
v 3.161407 -0.009744 -0.043506
v 3.433407 0.108161 -0.372506
v 3.315407 0.108161 -0.372506
v 3.102407 0.108161 -0.112506
v 2.888407 0.108161 -0.372506
v 2.769407 0.108161 -0.372506
v 3.042407 0.108161 -0.043506
v 2.748407 0.108161 0.309494
v 2.867407 0.108161 0.309494
v 3.102407 0.108161 0.027494
v 3.334407 0.108161 0.309494
v 3.452407 0.108161 0.309494
v 3.161407 0.108161 -0.043506
vt 0.241202 0.352418
vt 0.000000 0.587076
vt 0.000000 0.484789
vt 0.190616 0.300844
vt 0.000000 0.117759
vt 0.000000 0.016332
vt 0.241202 0.250131
vt 0.500000 0.605127
vt 0.293255 0.300844
vt 0.500000 0.000000
vt 0.500000 0.502840
vt 0.500000 0.101428
vt 0.741202 0.252709
vt 0.500000 0.120338
vt 0.500000 0.018051
vt 0.690616 0.304283
vt 0.500000 0.588795
vt 0.500000 0.487368
vt 0.741202 0.354996
vt 1.000000 0.000000
vt 0.793255 0.304282
vt 1.000000 0.605127
vt 1.000000 0.102287
vt 1.000000 0.503699
vt 0.518645 0.605127
vt 0.518645 0.669721
vt 0.432204 0.669721
vt 0.432204 0.605127
vt 0.747088 0.706473
vt 0.691526 0.706473
vt 0.691526 0.605127
vt 0.747088 0.605127
vt 0.691526 0.605127
vt 0.691526 0.894576
vt 0.605086 0.894576
vt 0.605086 0.605127
vt 0.518645 0.958623
vt 0.432204 0.958623
vt 0.259322 0.605127
vt 0.259322 0.670456
vt 0.172882 0.670456
vt 0.172882 0.605127
vt 0.172882 0.605127
vt 0.172882 0.998358
vt 0.086441 0.998358
vt 0.086441 0.605127
vt 0.345763 0.605127
vt 0.345763 0.972600
vt 0.259322 0.972600
vt 0.259322 0.605127
vt 0.259322 0.985982
vt 0.172882 0.985982
vt 0.605086 0.605127
vt 0.605086 0.919008
vt 0.518645 0.919008
vt 0.518645 0.605127
vt 0.086441 0.605127
vt 0.086441 1.000000
vt 0.000000 1.000000
vt 0.000000 0.605127
vt 0.432204 0.605127
vt 0.432204 0.972051
vt 0.345763 0.972051
vt 0.345763 0.605127
vt 0.691526 0.706473
vt 0.746779 0.706473
vt 0.746779 0.807819
vt 0.691526 0.807819
vn 0.0000 -1.0000 -0.0000
vn 0.0000 1.0000 0.0000
vn 0.0000 0.0000 -1.0000
vn 0.7721 0.0000 -0.6355
vn -0.7736 0.0000 -0.6337
vn 0.0000 0.0000 1.0000
vn 0.7716 0.0000 -0.6361
vn -0.7696 0.0000 0.6386
vn 0.7682 0.0000 0.6402
vn -0.7722 0.0000 0.6353
vn -0.7684 0.0000 -0.6400
vn 0.7707 0.0000 0.6372
usemtl Material.002
s off
f 64/165/25 63/166/25 62/167/25
f 64/165/25 62/167/25 61/168/25
f 61/168/25 60/169/25 59/170/25
f 61/168/25 59/170/25 70/171/25
f 64/165/25 61/168/25 70/171/25
f 65/172/25 64/165/25 70/171/25
f 65/172/25 70/171/25 67/173/25
f 67/173/25 70/171/25 69/174/25
f 65/172/25 67/173/25 66/175/25
f 68/176/25 67/173/25 69/174/25
f 76/177/26 74/178/26 75/179/26
f 76/177/26 73/180/26 74/178/26
f 73/180/26 71/181/26 72/182/26
f 73/180/26 82/183/26 71/181/26
f 76/177/26 82/183/26 73/180/26
f 77/184/26 82/183/26 76/177/26
f 77/184/26 79/185/26 82/183/26
f 79/185/26 81/186/26 82/183/26
f 77/184/26 78/187/26 79/185/26
f 80/188/26 81/186/26 79/185/26
f 59/189/27 60/190/27 72/191/27 71/192/27
f 62/193/27 63/194/27 75/195/27 74/196/27
f 61/197/28 62/198/28 74/199/28 73/200/28
f 60/190/29 61/201/29 73/202/29 72/191/29
f 65/203/30 66/204/30 78/205/30 77/206/30
f 69/207/31 70/208/31 82/209/31 81/210/31
f 63/211/32 64/212/32 76/213/32 75/214/32
f 66/204/33 67/215/33 79/216/33 78/205/33
f 67/217/34 68/218/34 80/219/34 79/220/34
f 64/221/35 65/222/35 77/223/35 76/224/35
f 70/225/36 59/226/36 71/227/36 82/228/36
f 68/229/30 69/230/30 81/231/30 80/232/30
