# Blender v2.79 (sub 0) OBJ File: 'om_full_pent.blend'
# www.blender.org
mtllib om_full_pent_objexp.mtl
o om_full_03a.000_om_full_03a.024
v 1.367182 0.031250 -0.523655
v 1.330445 0.093750 -0.574219
v 2.025694 0.093750 -1.079347
v 2.062430 0.031250 -1.028783
v 0.297924 0.156250 -1.602106
v 2.172640 0.093750 -0.877092
v 1.440655 0.031250 -0.422528
v 1.477391 0.093750 -0.371964
v 2.363642 0.031250 -1.518017
v 2.326906 0.093750 -1.568580
v 1.440655 0.156250 -0.422528
v 2.135904 0.156250 -0.927656
v 2.062430 0.156250 -1.028783
v 2.363643 0.156250 -1.518017
v 0.179042 0.031250 -1.563479
v 0.119601 0.093750 -1.544165
v 0.385163 0.093750 -0.726851
v 0.444604 0.031250 -0.746165
v 0.563486 0.156250 -0.784792
v -0.252608 0.093750 -1.981816
v 1.367182 0.156250 -0.523655
v -0.193167 0.031250 -2.001130
v 2.694272 0.156250 -1.062945
v 2.731008 0.093750 -1.012381
v 0.622927 0.093750 -0.804106
v 2.135904 0.031250 -0.927656
v 2.694272 0.031250 -1.062945
v 2.889527 0.031250 -1.629705
v 2.962999 0.031250 -1.528577
v 2.724212 0.093750 -1.857241
v 2.760948 0.031250 -1.806676
v 0.563486 0.031250 -0.784792
v 2.760948 0.156250 -1.806676
v 2.963000 0.156250 -1.528577
v 2.889526 0.156250 -1.629704
v 3.128315 0.093750 -1.301041
v 3.091578 0.156250 -1.351604
v 0.357365 0.093750 -1.621420
v 3.091578 0.031250 -1.351604
v 0.179042 0.156250 -1.563479
v -0.193167 0.156250 -2.001130
v 0.444604 0.156250 -0.746165
v 0.341802 0.156250 -2.174952
v 0.401243 0.093750 -2.194265
v 0.297924 0.031250 -1.602106
v 0.341802 0.031250 -2.174953
v -0.136881 0.031250 -2.535789
v -0.017999 0.031250 -2.574416
v -0.404366 0.093750 -2.448878
v -0.344924 0.031250 -2.468191
v -0.344924 0.156250 -2.468191
v -0.017999 0.156250 -2.574416
v -0.136881 0.156250 -2.535789
v 0.249486 0.093750 -2.661327
v 0.190045 0.156250 -2.642013
v 0.190045 0.031250 -2.642013
v -0.911483 0.156250 -0.062500
v -0.911483 0.031250 0.062500
v -0.911483 0.093750 0.125000
v -0.052108 0.093750 0.125000
v -0.052108 0.031250 0.062500
v -0.052108 0.156250 -0.062500
v -1.442733 0.093750 0.343751
v -1.442732 0.031250 0.281251
v -0.052108 0.093750 -0.125000
v -0.052108 0.031250 -0.062500
v -0.911483 0.093750 -0.125000
v -0.911483 0.156250 0.062500
v -1.442733 0.156250 0.281250
v -0.052108 0.156250 0.062500
v -1.442733 0.156250 -0.281250
v -1.442733 0.093750 -0.343750
v -0.911483 0.031250 -0.062500
v -1.442733 0.031250 -0.281250
v -1.933830 0.031250 0.062501
v -1.933830 0.031250 -0.062499
v -1.933830 0.093750 0.343751
v -1.933830 0.031250 0.281251
v -1.933830 0.156250 0.281251
v -1.933831 0.156250 -0.062499
v -1.933830 0.156250 0.062500
v -1.933831 0.093750 -0.343750
v -1.933830 0.156250 -0.281250
v -1.933830 0.031250 -0.281250
v 0.179043 0.156250 1.563479
v 0.297925 0.031250 1.602106
v 0.357366 0.093750 1.621420
v 0.622927 0.093750 0.804106
v 0.563486 0.031250 0.784792
v 0.444603 0.156250 0.746165
v 0.401244 0.093750 2.194266
v 0.341803 0.031250 2.174952
v 0.385163 0.093750 0.726851
v 0.444603 0.031250 0.746165
v 0.119601 0.093750 1.544166
v 0.297925 0.156250 1.602106
v 0.341803 0.156250 2.174953
v 0.563486 0.156250 0.784792
v -0.193167 0.156250 2.001130
v -0.252607 0.093750 1.981817
v 0.179042 0.031250 1.563479
v -0.193167 0.031250 2.001131
v -0.017998 0.031250 2.574417
v -0.136880 0.031250 2.535789
v 0.249487 0.093750 2.661328
v 0.190046 0.031250 2.642013
v 0.190046 0.156250 2.642013
v -0.136880 0.156250 2.535790
v -0.017998 0.156250 2.574416
v -0.404365 0.093750 2.448879
v -0.344924 0.156250 2.468192
v -0.344924 0.031250 2.468192
v 2.062431 0.156250 1.028783
v 2.135904 0.031250 0.927656
v 2.172641 0.093750 0.877092
v 1.477392 0.093750 0.371965
v 1.440655 0.031250 0.422528
v 1.367182 0.156250 0.523655
v 2.731010 0.093750 1.012380
v 2.694273 0.031250 1.062944
v 1.330445 0.093750 0.574219
v 1.367182 0.031250 0.523656
v 2.025695 0.093750 1.079347
v 2.135904 0.156250 0.927656
v 2.694273 0.156250 1.062944
v 1.440655 0.156250 0.422528
v 2.363643 0.156250 1.518017
v 2.326907 0.093750 1.568580
v 2.062432 0.031250 1.028783
v 2.363644 0.031250 1.518017
v 2.963001 0.031250 1.528576
v 2.889528 0.031250 1.629703
v 3.128316 0.093750 1.301040
v 3.091579 0.031250 1.351603
v 3.091579 0.156250 1.351603
v 2.889528 0.156250 1.629704
v 2.963001 0.156250 1.528576
v 2.724213 0.093750 1.857240
v 2.760950 0.156250 1.806676
v 2.760950 0.031250 1.806676
vt 0.015625 -0.205691
vt -0.199219 -0.183594
vt 0.015625 -0.183594
vt -0.371094 -0.234375
vt -0.496094 -0.179687
vt -0.238281 -0.179687
vt -0.238281 -0.179687
vt -0.023438 -0.148437
vt -0.023438 -0.179687
vt -0.496094 -0.179687
vt -0.621094 -0.234375
vt -0.753906 -0.179687
vt -0.496094 -0.234375
vt -0.621094 -0.258472
vt -0.621094 -0.234375
vt -0.058594 -0.205691
vt -0.201721 -0.183664
vt -0.058594 -0.183594
vt -0.968750 -0.126340
vt -0.753906 -0.148437
vt -0.968750 -0.148437
vt -0.496094 -0.148437
vt -0.238281 -0.148437
vt -0.371094 -0.258472
vt -0.496094 -0.234375
vt -0.371094 -0.234375
vt -0.496094 -0.148437
vt -0.238281 -0.148437
vt -0.371094 -0.258472
vt -0.496094 -0.234375
vt -0.830116 -0.183814
vt -0.964844 -0.205691
vt -0.964844 -0.183594
vt -0.496094 -0.179687
vt -0.496094 -0.179687
vt -0.753906 -0.179687
vt -0.023438 -0.179687
vt -0.238281 -0.126340
vt -0.023438 -0.148437
vt -0.058594 -0.205691
vt -0.201721 -0.183664
vt -0.058594 -0.183594
vt -0.808594 -0.205691
vt -1.023438 -0.183594
vt -0.808594 -0.183594
vt -0.496094 -0.234375
vt -0.621094 -0.258472
vt -0.830116 -0.183814
vt -0.964844 -0.205691
vt -0.964844 -0.183594
vt 0.015625 -0.205691
vt -0.199219 -0.183594
vt 0.015625 -0.183594
vt -0.371094 -0.234375
vt -0.496094 -0.179687
vt -0.238281 -0.179687
vt -0.238281 -0.179687
vt -0.023438 -0.148437
vt -0.023438 -0.179687
vt -0.496094 -0.179687
vt -0.621094 -0.234375
vt -0.753906 -0.179687
vt -0.496094 -0.234375
vt -0.621094 -0.258472
vt -0.621094 -0.234375
vt -0.058594 -0.205691
vt -0.201721 -0.183664
vt -0.058594 -0.183594
vt -0.968750 -0.148437
vt -0.753906 -0.126340
vt -0.753906 -0.148437
vt -0.496094 -0.148437
vt -0.238281 -0.148437
vt -0.371094 -0.258472
vt -0.496094 -0.234375
vt -0.371094 -0.234375
vt -0.496094 -0.179687
vt -0.238281 -0.148437
vt -0.371094 -0.258472
vt -0.496094 -0.234375
vt -0.830116 -0.183814
vt -0.964844 -0.205691
vt -0.964844 -0.183594
vt -0.496094 -0.179687
vt -0.753906 -0.179687
vt -0.023438 -0.179687
vt -0.238281 -0.126340
vt -0.023438 -0.148437
vt -0.058594 -0.205691
vt -0.201721 -0.183664
vt -0.058594 -0.183594
vt -0.808594 -0.205691
vt -1.023438 -0.183594
vt -0.808594 -0.183594
vt -0.496094 -0.234375
vt -0.621094 -0.258472
vt -0.830116 -0.183814
vt -0.964844 -0.205691
vt -0.964844 -0.183594
vt 0.015625 -0.205691
vt -0.199219 -0.183594
vt 0.015625 -0.183594
vt -0.371094 -0.234375
vt -0.496094 -0.179687
vt -0.238281 -0.179687
vt -0.238281 -0.179687
vt -0.023438 -0.148437
vt -0.023438 -0.179687
vt -0.496094 -0.179687
vt -0.621094 -0.234375
vt -0.753906 -0.179687
vt -0.496094 -0.234375
vt -0.621094 -0.258472
vt -0.621094 -0.234375
vt -0.058594 -0.205691
vt -0.201721 -0.183664
vt -0.058594 -0.183594
vt -0.968750 -0.126340
vt -0.753906 -0.148437
vt -0.968750 -0.148437
vt -0.496094 -0.148437
vt -0.238281 -0.148437
vt -0.371094 -0.258472
vt -0.496094 -0.234375
vt -0.371094 -0.234375
vt -0.496094 -0.179687
vt -0.238281 -0.148437
vt -0.371094 -0.258472
vt -0.496094 -0.234375
vt -0.830116 -0.183814
vt -0.964844 -0.205691
vt -0.964844 -0.183594
vt -0.496094 -0.179687
vt -0.753906 -0.179687
vt -0.023438 -0.179687
vt -0.023438 -0.126340
vt -0.023438 -0.148437
vt -0.058594 -0.205691
vt -0.201721 -0.183664
vt -0.058594 -0.183594
vt -0.808594 -0.205691
vt -1.023438 -0.183594
vt -0.808594 -0.183594
vt -0.496094 -0.234375
vt -0.621094 -0.258472
vt -0.830116 -0.183814
vt -0.964844 -0.205691
vt -0.964844 -0.183594
vt 0.015625 -0.205691
vt -0.199219 -0.183594
vt 0.015625 -0.183594
vt -0.371094 -0.234375
vt -0.496094 -0.179687
vt -0.238281 -0.179687
vt -0.238281 -0.179687
vt -0.023438 -0.148437
vt -0.023438 -0.179687
vt -0.496094 -0.179687
vt -0.621094 -0.234375
vt -0.753906 -0.179687
vt -0.496094 -0.234375
vt -0.621094 -0.258472
vt -0.621094 -0.234375
vt -0.058594 -0.205691
vt -0.201721 -0.183664
vt -0.058594 -0.183594
vt -0.968750 -0.148437
vt -0.753906 -0.126340
vt -0.753906 -0.148437
vt -0.496094 -0.148437
vt -0.238281 -0.148437
vt -0.371094 -0.258472
vt -0.496094 -0.234375
vt -0.371094 -0.234375
vt -0.496094 -0.179687
vt -0.238281 -0.148437
vt -0.371094 -0.258472
vt -0.496094 -0.234375
vt -0.830116 -0.183814
vt -0.964844 -0.205691
vt -0.964844 -0.183594
vt -0.496094 -0.179687
vt -0.753906 -0.179687
vt -0.023438 -0.179687
vt -0.023438 -0.126340
vt -0.023438 -0.148437
vt -0.058594 -0.205691
vt -0.201721 -0.183664
vt -0.058594 -0.183594
vt -0.808594 -0.205691
vt -1.023438 -0.183594
vt -0.808594 -0.183594
vt -0.496094 -0.234375
vt -0.621094 -0.258472
vt -0.830116 -0.183814
vt -0.964844 -0.205691
vt -0.964844 -0.183594
vt 0.015625 -0.205691
vt -0.199219 -0.183594
vt 0.015625 -0.183594
vt -0.371094 -0.234375
vt -0.496094 -0.179687
vt -0.238281 -0.179687
vt -0.238281 -0.179687
vt -0.023438 -0.148437
vt -0.023438 -0.179687
vt -0.496094 -0.179687
vt -0.621094 -0.234375
vt -0.753906 -0.179687
vt -0.496094 -0.234375
vt -0.621094 -0.258472
vt -0.621094 -0.234375
vt -0.058594 -0.205691
vt -0.201721 -0.183664
vt -0.058594 -0.183594
vt -0.968750 -0.148437
vt -0.753906 -0.126340
vt -0.753906 -0.148437
vt -0.496094 -0.148437
vt -0.238281 -0.148437
vt -0.371094 -0.258472
vt -0.496094 -0.234375
vt -0.371094 -0.234375
vt -0.496094 -0.179687
vt -0.238281 -0.148437
vt -0.371094 -0.258472
vt -0.496094 -0.234375
vt -0.830116 -0.183814
vt -0.964844 -0.205691
vt -0.964844 -0.183594
vt -0.496094 -0.179687
vt -0.753906 -0.179687
vt -0.023438 -0.179687
vt -0.023438 -0.126340
vt -0.023438 -0.148437
vt -0.058594 -0.205691
vt -0.201721 -0.183664
vt -0.058594 -0.183594
vt -0.808594 -0.205691
vt -1.023438 -0.183594
vt -0.808594 -0.183594
vt -0.496094 -0.234375
vt -0.621094 -0.258472
vt -0.830116 -0.183814
vt -0.964844 -0.205691
vt -0.964844 -0.183594
vt -0.199219 -0.205691
vt -0.496094 -0.258472
vt -0.201721 -0.205761
vt -0.753906 -0.126340
vt -0.496094 -0.258472
vt -0.830116 -0.205911
vt -0.023438 -0.126340
vt -0.201721 -0.205761
vt -1.023438 -0.205691
vt -0.830116 -0.205911
vt -0.199219 -0.205691
vt -0.496094 -0.258472
vt -0.201721 -0.205761
vt -0.968750 -0.126340
vt -0.496094 -0.148437
vt -0.496094 -0.258472
vt -0.830116 -0.205911
vt -0.023438 -0.126340
vt -0.201721 -0.205761
vt -1.023438 -0.205691
vt -0.830116 -0.205911
vt -0.199219 -0.205691
vt -0.496094 -0.258472
vt -0.201721 -0.205761
vt -0.753906 -0.126340
vt -0.496094 -0.148437
vt -0.496094 -0.258472
vt -0.830116 -0.205911
vt -0.238281 -0.126340
vt -0.201721 -0.205761
vt -1.023438 -0.205691
vt -0.830116 -0.205911
vt -0.199219 -0.205691
vt -0.496094 -0.258472
vt -0.201721 -0.205761
vt -0.968750 -0.126340
vt -0.496094 -0.148437
vt -0.496094 -0.258472
vt -0.830116 -0.205911
vt -0.238281 -0.126340
vt -0.201721 -0.205761
vt -1.023438 -0.205691
vt -0.830116 -0.205911
vt -0.199219 -0.205691
vt -0.496094 -0.258472
vt -0.201721 -0.205761
vt -0.968750 -0.126340
vt -0.496094 -0.148437
vt -0.496094 -0.258472
vt -0.830116 -0.205911
vt -0.238281 -0.126340
vt -0.201721 -0.205761
vt -1.023438 -0.205691
vt -0.830116 -0.205911
vn -0.4156 -0.7071 -0.5721
vn -0.5256 -0.7000 -0.4834
vn 0.1641 0.9045 0.3935
vn -0.0000 1.0000 -0.0000
vn 0.0000 -1.0000 0.0000
vn 0.1680 -0.9043 0.3925
vn -0.2249 0.9239 -0.3096
vn -0.7316 0.0000 -0.6817
vn -0.3214 0.9043 -0.2810
vn -0.5258 -0.7000 -0.4833
vn -0.3236 -0.9045 -0.2777
vn 0.4156 0.7071 0.5721
vn 0.3031 0.7007 0.6459
vn -0.2249 -0.9239 -0.3096
vn 0.4223 0.0000 0.9065
vn 0.2249 0.9239 0.3096
vn -0.5318 0.7028 -0.4725
vn -0.5121 0.7061 -0.4890
vn -0.4156 0.7071 -0.5721
vn 0.2926 0.6989 0.6527
vn 0.2971 -0.7000 0.6494
vn 0.4156 -0.7071 0.5721
vn 0.2973 -0.7000 0.6493
vn 0.2249 -0.9239 0.3096
vn -0.6725 -0.7071 0.2185
vn -0.6222 -0.7000 0.3505
vn 0.4250 0.9045 -0.0345
vn 0.4252 -0.9043 -0.0385
vn -0.3640 0.9239 0.1183
vn -0.8744 0.0000 0.4851
vn -0.3666 0.9043 0.2188
vn -0.6221 -0.7000 0.3507
vn -0.3641 -0.9045 0.2219
vn 0.6725 0.7071 -0.2185
vn 0.7111 0.6989 -0.0765
vn 0.7079 0.7007 -0.0886
vn -0.3640 -0.9239 0.1183
vn 0.9926 0.0000 -0.1215
vn 0.3640 0.9239 -0.1183
vn -0.6137 0.7028 0.3597
vn -0.6233 0.7061 0.3359
vn -0.6725 0.7071 0.2185
vn 0.7094 -0.7000 -0.0819
vn 0.6725 -0.7071 -0.2185
vn 0.7094 -0.7000 -0.0821
vn 0.3640 -0.9239 -0.1183
vn 0.0000 -0.7071 0.7071
vn 0.1411 -0.7000 0.7000
vn 0.0985 0.9045 -0.4148
vn 0.0948 -0.9043 -0.4163
vn 0.0000 0.9239 0.3827
vn 0.1912 0.0000 0.9816
vn 0.0948 0.9043 0.4163
vn 0.1413 -0.7000 0.7000
vn 0.0985 -0.9045 0.4148
vn -0.0000 0.7071 -0.7071
vn 0.1344 0.7007 -0.7007
vn 0.0000 -0.9239 0.3827
vn 0.1912 0.0000 -0.9816
vn 0.0000 0.9239 -0.3827
vn 0.1525 0.7028 0.6948
vn 0.1268 0.7061 0.6967
vn 0.0000 0.7071 0.7071
vn 0.1469 0.6989 -0.7000
vn 0.1413 -0.7000 -0.7000
vn -0.0000 -0.7071 -0.7071
vn 0.1412 -0.7000 -0.7000
vn 0.0000 -0.9239 -0.3827
vn 0.6725 -0.7071 0.2185
vn 0.7094 -0.7000 0.0821
vn -0.3641 0.9045 -0.2219
vn -0.3666 -0.9043 -0.2188
vn 0.3640 0.9239 0.1183
vn 0.9926 0.0000 0.1215
vn 0.4252 0.9043 0.0385
vn 0.7094 -0.7000 0.0819
vn 0.4250 -0.9045 0.0345
vn -0.6725 0.7071 -0.2185
vn -0.6203 0.6989 -0.3561
vn -0.6248 0.7007 -0.3444
vn 0.3640 -0.9239 0.1183
vn -0.8744 0.0000 -0.4851
vn -0.3640 0.9239 -0.1183
vn 0.7079 0.7028 0.0697
vn 0.7018 0.7061 0.0946
vn 0.6725 0.7071 0.2185
vn -0.6221 -0.7000 -0.3507
vn -0.6725 -0.7071 -0.2185
vn -0.6221 -0.7000 -0.3506
vn -0.3640 -0.9239 -0.1183
vn 0.4156 -0.7071 -0.5721
vn 0.2973 -0.7000 -0.6493
vn -0.3236 0.9045 0.2777
vn -0.3214 -0.9043 0.2810
vn 0.2249 0.9239 -0.3096
vn 0.4223 0.0000 -0.9065
vn 0.1680 0.9043 -0.3925
vn 0.2972 -0.7000 -0.6494
vn 0.1641 -0.9045 -0.3935
vn -0.4156 0.7071 0.5721
vn -0.5303 0.6989 0.4799
vn -0.5206 0.7007 0.4878
vn 0.2249 -0.9239 -0.3096
vn -0.7316 -0.0000 0.6817
vn -0.2249 0.9239 0.3096
vn 0.2851 0.7028 -0.6517
vn 0.3069 0.7061 -0.6382
vn 0.4156 0.7071 -0.5721
vn -0.5258 -0.7000 0.4833
vn -0.4156 -0.7071 0.5721
vn -0.5257 -0.7000 0.4834
vn -0.2249 -0.9239 0.3096
vn -0.5878 0.0000 -0.8090
vn 0.5878 0.0000 0.8090
vn -0.9511 0.0000 0.3090
vn 0.9511 0.0000 -0.3090
vn 0.0000 0.0000 1.0000
vn 0.0000 0.0000 -1.0000
vn 0.9511 0.0000 0.3090
vn -0.9511 0.0000 -0.3090
vn 0.5878 0.0000 -0.8090
vn -0.5878 0.0000 0.8090
usemtl om_decals_02a
s 1
f 2/1/1 4/2/2 1/3/1
f 23/4/3 34/5/4 12/6/4
f 4/7/5 7/8/5 1/9/5
f 29/10/5 27/11/6 26/12/5
f 33/13/7 10/14/8 14/15/9
f 3/16/10 9/17/11 4/18/2
f 8/19/12 12/20/13 11/21/12
f 12/6/4 35/22/4 13/23/4
f 10/24/8 31/25/14 9/26/11
f 4/7/5 29/27/5 26/28/5
f 24/29/15 37/30/16 23/4/3
f 14/31/9 3/32/17 13/33/18
f 9/26/11 28/34/5 4/7/5
f 35/35/4 14/15/9 13/36/4
f 13/23/4 11/37/4 12/6/4
f 3/38/17 21/39/19 13/23/18
f 6/40/20 23/41/3 12/42/13
f 6/43/21 7/44/22 26/45/23
f 39/46/24 24/47/15 27/11/6
f 27/48/6 6/49/21 26/50/23
f 17/51/25 15/52/26 18/53/25
f 43/54/27 52/55/4 5/56/4
f 15/57/5 32/58/5 18/59/5
f 48/60/5 46/61/28 45/62/5
f 51/63/29 20/64/30 41/65/31
f 16/66/32 22/67/33 15/68/26
f 19/69/34 38/70/35 5/71/36
f 5/56/4 53/72/4 40/73/4
f 20/74/30 50/75/37 22/76/33
f 47/77/5 45/78/5 15/57/5
f 44/79/38 55/80/39 43/54/27
f 41/81/31 16/82/40 40/83/41
f 22/76/33 47/77/5 15/57/5
f 53/84/4 41/65/31 40/85/4
f 40/73/4 19/86/4 5/56/4
f 16/87/40 42/88/42 40/73/41
f 38/89/35 43/90/27 5/91/36
f 38/92/43 32/93/44 45/94/45
f 56/95/46 44/96/38 46/61/28
f 46/97/28 38/98/43 45/99/45
f 60/100/47 58/101/48 61/102/47
f 71/103/49 80/104/4 57/105/4
f 58/106/5 66/107/5 61/108/5
f 76/109/5 74/110/50 73/111/5
f 79/112/51 63/113/52 69/114/53
f 59/115/54 64/116/55 58/117/48
f 65/118/56 57/119/57 62/120/56
f 57/105/4 81/121/4 68/122/4
f 63/123/52 78/124/58 64/125/55
f 75/126/5 73/127/5 58/106/5
f 72/128/59 83/129/60 71/103/49
f 69/130/53 59/131/61 68/132/62
f 64/125/55 75/126/5 58/106/5
f 81/133/4 69/114/53 68/134/4
f 68/122/4 62/135/4 57/105/4
f 68/122/62 60/136/63 70/137/63
f 67/138/64 71/139/49 57/140/57
f 67/141/65 66/142/66 73/143/67
f 84/144/68 72/145/59 74/110/50
f 74/146/50 67/147/65 73/148/67
f 88/149/69 86/150/70 89/151/69
f 99/152/71 108/153/4 85/154/4
f 86/155/5 94/156/5 89/157/5
f 104/158/5 102/159/72 101/160/5
f 107/161/73 91/162/74 97/163/75
f 87/164/76 92/165/77 86/166/70
f 90/167/78 95/168/79 85/169/80
f 85/154/4 109/170/4 96/171/4
f 91/172/74 106/173/81 92/174/77
f 103/175/5 101/176/5 86/155/5
f 100/177/82 111/178/83 99/152/71
f 97/179/75 87/180/84 96/181/85
f 92/174/77 103/175/5 86/155/5
f 109/182/4 97/163/75 96/183/4
f 96/171/4 90/184/4 85/154/4
f 96/171/85 88/185/86 98/186/86
f 95/187/79 99/188/71 85/189/80
f 95/190/87 94/191/88 101/192/89
f 112/193/90 100/194/82 102/159/72
f 102/195/72 95/196/87 101/197/89
f 116/198/91 114/199/92 117/200/91
f 127/201/93 136/202/4 113/203/4
f 114/204/5 122/205/5 117/206/5
f 132/207/5 130/208/94 129/209/5
f 135/210/95 119/211/96 125/212/97
f 115/213/98 120/214/99 114/215/92
f 118/216/100 123/217/101 113/218/102
f 113/203/4 137/219/4 124/220/4
f 119/221/96 134/222/103 120/223/99
f 131/224/5 129/225/5 114/204/5
f 128/226/104 139/227/105 127/201/93
f 125/228/97 115/229/106 124/230/107
f 120/223/99 131/224/5 114/204/5
f 137/231/4 125/212/97 124/232/4
f 124/220/4 118/233/4 113/203/4
f 124/220/107 116/234/108 126/235/108
f 123/236/101 127/237/93 113/238/102
f 123/239/109 122/240/110 129/241/111
f 140/242/112 128/243/104 130/208/94
f 130/244/94 123/245/109 129/246/111
f 2/1/1 3/247/10 4/2/2
f 23/4/3 37/30/16 34/5/4
f 4/7/5 26/28/5 7/8/5
f 29/10/5 39/46/24 27/11/6
f 33/13/7 30/248/113 10/14/8
f 3/16/10 10/249/8 9/17/11
f 8/19/12 6/250/20 12/20/13
f 12/6/4 34/5/4 35/22/4
f 10/24/8 30/248/113 31/25/14
f 4/7/5 28/34/5 29/27/5
f 24/29/15 36/251/114 37/30/16
f 14/31/9 10/252/8 3/32/17
f 9/26/11 31/25/14 28/34/5
f 35/35/4 33/13/7 14/15/9
f 13/23/4 21/39/4 11/37/4
f 3/38/17 2/253/19 21/39/19
f 6/40/20 24/254/15 23/41/3
f 6/43/21 8/255/22 7/44/22
f 39/46/24 36/251/114 24/47/15
f 27/48/6 24/256/15 6/49/21
f 17/51/25 16/257/32 15/52/26
f 43/54/27 55/80/39 52/55/4
f 15/57/5 45/78/5 32/58/5
f 48/60/5 56/95/46 46/61/28
f 51/63/29 49/258/115 20/64/30
f 16/66/32 20/259/30 22/67/33
f 19/69/34 25/260/34 38/70/35
f 5/56/4 52/55/4 53/72/4
f 20/74/30 49/258/115 50/75/37
f 47/77/5 48/261/5 45/78/5
f 44/79/38 54/262/116 55/80/39
f 41/81/31 20/263/30 16/82/40
f 22/76/33 50/75/37 47/77/5
f 53/84/4 51/63/29 41/65/31
f 40/73/4 42/88/4 19/86/4
f 16/87/40 17/264/42 42/88/42
f 38/89/35 44/265/38 43/90/27
f 38/92/43 25/266/44 32/93/44
f 56/95/46 54/262/116 44/96/38
f 46/97/28 44/267/38 38/98/43
f 60/100/47 59/268/54 58/101/48
f 71/103/49 83/129/60 80/104/4
f 58/106/5 73/127/5 66/107/5
f 76/109/5 84/144/68 74/110/50
f 79/112/51 77/269/117 63/113/52
f 59/115/54 63/270/52 64/116/55
f 65/118/56 67/271/64 57/119/57
f 57/105/4 80/104/4 81/121/4
f 63/123/52 77/269/117 78/124/58
f 75/126/5 76/272/5 73/127/5
f 72/128/59 82/273/118 83/129/60
f 69/130/53 63/274/52 59/131/61
f 64/125/55 78/124/58 75/126/5
f 81/133/4 79/112/51 69/114/53
f 68/122/4 70/137/4 62/135/4
f 68/122/62 59/275/61 60/136/63
f 67/138/64 72/276/59 71/139/49
f 67/141/65 65/277/66 66/142/66
f 84/144/68 82/273/118 72/145/59
f 74/146/50 72/278/59 67/147/65
f 88/149/69 87/279/76 86/150/70
f 99/152/71 111/178/83 108/153/4
f 86/155/5 101/176/5 94/156/5
f 104/158/5 112/193/90 102/159/72
f 107/161/73 105/280/119 91/162/74
f 87/164/76 91/281/74 92/165/77
f 90/167/78 93/282/78 95/168/79
f 85/154/4 108/153/4 109/170/4
f 91/172/74 105/280/119 106/173/81
f 103/175/5 104/283/5 101/176/5
f 100/177/82 110/284/120 111/178/83
f 97/179/75 91/285/74 87/180/84
f 92/174/77 106/173/81 103/175/5
f 109/182/4 107/161/73 97/163/75
f 96/171/4 98/186/4 90/184/4
f 96/171/85 87/286/84 88/185/86
f 95/187/79 100/287/82 99/188/71
f 95/190/87 93/288/88 94/191/88
f 112/193/90 110/284/120 100/194/82
f 102/195/72 100/289/82 95/196/87
f 116/198/91 115/290/98 114/199/92
f 127/201/93 139/227/105 136/202/4
f 114/204/5 129/225/5 122/205/5
f 132/207/5 140/242/112 130/208/94
f 135/210/95 133/291/121 119/211/96
f 115/213/98 119/292/96 120/214/99
f 118/216/100 121/293/100 123/217/101
f 113/203/4 136/202/4 137/219/4
f 119/221/96 133/291/121 134/222/103
f 131/224/5 132/294/5 129/225/5
f 128/226/104 138/295/122 139/227/105
f 125/228/97 119/296/96 115/229/106
f 120/223/99 134/222/103 131/224/5
f 137/231/4 135/210/95 125/212/97
f 124/220/4 126/235/4 118/233/4
f 124/220/107 115/297/106 116/234/108
f 123/236/101 128/298/104 127/237/93
f 123/239/109 121/299/110 122/240/110
f 140/242/112 138/295/122 128/243/104
f 130/244/94 128/300/104 123/245/109
o om_full_03a.008_om_full_03a.022
v 0.870512 0.062500 0.093751
v 0.870512 0.062500 -0.093750
v 0.870512 0.125000 0.093751
v 0.870512 0.125000 -0.093750
v 3.544654 0.062500 -0.093751
v 3.544654 0.062500 0.093750
v 3.544654 0.125000 0.093750
v 3.544654 0.125000 -0.093751
v 0.878312 0.062500 -0.083015
v 0.699989 0.062500 -0.140956
v 0.878312 0.125000 -0.083015
v 0.699989 0.125000 -0.140956
v 1.526342 0.062500 -2.684216
v 1.704666 0.062500 -2.626276
v 1.704666 0.125000 -2.626276
v 1.526342 0.125000 -2.684216
v 0.699988 0.062500 0.140956
v 0.878311 0.062500 0.083015
v 0.699988 0.125000 0.140956
v 0.878311 0.125000 0.083015
v 1.704667 0.062500 2.626275
v 1.526344 0.062500 2.684216
v 1.526344 0.125000 2.684216
v 1.704667 0.125000 2.626275
v 0.602398 0.062500 -0.006635
v 0.712608 0.062500 0.145056
v 0.602398 0.125000 -0.006635
v 0.712608 0.125000 0.145056
v -1.450818 0.062500 1.716878
v -1.561028 0.062500 1.565186
v -1.561028 0.125000 1.565187
v -1.450818 0.125000 1.716878
v 0.712609 0.062500 -0.145056
v 0.602399 0.062500 0.006635
v 0.712609 0.125000 -0.145056
v 0.602399 0.125000 0.006635
v -1.561028 0.062500 -1.565186
v -1.450818 0.062500 -1.716878
v -1.450818 0.125000 -1.716878
v -1.561028 0.125000 -1.565186
vt 0.104961 -0.003906
vt -0.945312 -0.050781
vt 0.104961 -0.050781
vt -0.945312 0.015625
vt 0.104961 0.000000
vt 0.104961 0.015625
vt 0.104961 0.000000
vt -0.945312 0.015625
vt -0.945312 0.000000
vt -0.945312 -0.050781
vt 0.104961 -0.003906
vt -0.945312 -0.003906
vt -0.945312 -0.003906
vt 0.104961 -0.050781
vt 0.104961 -0.003906
vt -0.945312 0.015625
vt 0.104961 0.000000
vt 0.104961 0.015625
vt 0.104961 0.000000
vt -0.945312 0.015625
vt -0.945312 0.000000
vt -0.945312 -0.050781
vt 0.104961 -0.003906
vt -0.945312 -0.003906
vt 0.104961 -0.003906
vt -0.945312 -0.050781
vt 0.104961 -0.050781
vt -0.945312 0.015625
vt 0.104961 0.000000
vt 0.104961 0.015625
vt 0.104961 0.000000
vt -0.945312 0.015625
vt -0.945312 0.000000
vt 0.104961 -0.050781
vt -0.945312 -0.003906
vt -0.945312 -0.050781
vt -0.945312 -0.003906
vt 0.104961 -0.050781
vt 0.104961 -0.003906
vt -0.945312 0.015625
vt 0.104961 0.000000
vt 0.104961 0.015625
vt 0.104961 0.000000
vt -0.945312 0.015625
vt -0.945312 0.000000
vt 0.104961 -0.050781
vt -0.945312 -0.003906
vt -0.945312 -0.050781
vt -0.945312 -0.003906
vt 0.104961 -0.050781
vt 0.104961 -0.003906
vt -0.945312 0.015625
vt 0.104961 0.000000
vt 0.104961 0.015625
vt 0.104961 0.000000
vt -0.945312 0.015625
vt -0.945312 0.000000
vt 0.104961 -0.050781
vt -0.945312 -0.003906
vt -0.945312 -0.050781
vt -0.945312 -0.003906
vt -0.945312 0.000000
vt 0.104961 0.015625
vt 0.104961 -0.050781
vt -0.945312 -0.050781
vt -0.945312 0.000000
vt 0.104961 0.015625
vt 0.104961 -0.050781
vt -0.945312 -0.003906
vt -0.945312 0.000000
vt 0.104961 0.015625
vt 0.104961 -0.003906
vt -0.945312 -0.050781
vt -0.945312 0.000000
vt 0.104961 0.015625
vt 0.104961 -0.003906
vt -0.945312 -0.050781
vt -0.945312 0.000000
vt 0.104961 0.015625
vt 0.104961 -0.003906
vn -0.0000 -0.7071 -0.7071
vn 0.0000 -0.7071 0.7071
vn 0.0000 0.7071 0.7071
vn -0.0000 0.7071 -0.7071
vn -0.6725 -0.7071 -0.2185
vn 0.6725 -0.7071 0.2185
vn 0.6725 0.7071 0.2185
vn -0.6725 0.7071 -0.2185
vn 0.6725 -0.7071 -0.2185
vn -0.6725 -0.7071 0.2185
vn -0.6725 0.7071 0.2185
vn 0.6725 0.7071 -0.2185
vn 0.4156 -0.7071 0.5721
vn -0.4156 -0.7071 -0.5721
vn -0.4156 0.7071 -0.5721
vn 0.4156 0.7071 0.5721
vn -0.4156 -0.7071 0.5721
vn 0.4156 -0.7071 -0.5721
vn 0.4156 0.7071 -0.5721
vn -0.4156 0.7071 0.5721
usemtl om_decals_01a
s 1
f 142/301/123 146/302/124 141/303/124
f 146/304/124 143/305/125 141/306/124
f 148/307/126 142/308/123 144/309/126
f 143/310/125 148/311/126 144/312/126
f 153/313/127 149/314/128 150/315/127
f 154/316/128 151/317/129 149/318/128
f 156/319/130 150/320/127 152/321/130
f 151/322/129 156/323/130 152/324/130
f 158/325/131 162/326/132 157/327/132
f 162/328/132 159/329/133 157/330/132
f 164/331/134 158/332/131 160/333/134
f 163/334/133 160/335/134 159/336/133
f 169/337/135 165/338/136 166/339/135
f 170/340/136 167/341/137 165/342/136
f 172/343/138 166/344/135 168/345/138
f 171/346/137 168/347/138 167/348/137
f 177/349/139 173/350/140 174/351/139
f 178/352/140 175/353/141 173/354/140
f 180/355/142 174/356/139 176/357/142
f 179/358/141 176/359/142 175/360/141
f 142/301/123 145/361/123 146/302/124
f 146/304/124 147/362/125 143/305/125
f 148/307/126 145/363/123 142/308/123
f 143/310/125 147/364/125 148/311/126
f 153/313/127 154/365/128 149/314/128
f 154/316/128 155/366/129 151/317/129
f 156/319/130 153/367/127 150/320/127
f 151/322/129 155/368/129 156/323/130
f 158/325/131 161/369/131 162/326/132
f 162/328/132 163/370/133 159/329/133
f 164/331/134 161/371/131 158/332/131
f 163/334/133 164/372/134 160/335/134
f 169/337/135 170/373/136 165/338/136
f 170/340/136 171/374/137 167/341/137
f 172/343/138 169/375/135 166/344/135
f 171/346/137 172/376/138 168/347/138
f 177/349/139 178/377/140 173/350/140
f 178/352/140 179/378/141 175/353/141
f 180/355/142 177/379/139 174/356/139
f 179/358/141 180/380/142 176/359/142
o om_full_03a.004_om_full_03a.019
v -0.280403 0.015924 0.000000
v 0.433498 0.015924 0.982600
v 1.588613 0.015924 0.607280
v 1.588613 0.015924 -0.607280
v 0.433497 0.015924 -0.982600
v 0.586375 0.151802 0.512091
v 0.214319 0.151802 0.000000
v 1.188374 0.151802 0.316490
v 1.188374 0.151802 -0.316490
v 0.586375 0.151802 -0.512091
v 1.646459 0.094125 -0.649308
v 0.411402 0.094125 -1.050602
v 0.411403 0.094125 1.050602
v 1.646459 0.094125 0.649307
v -0.351904 0.094125 0.000000
v 0.433498 0.172327 0.982600
v -0.280403 0.172327 0.000000
v 1.588613 0.172327 0.607280
v 1.588613 0.172327 -0.607280
v 0.433497 0.172327 -0.982600
v 0.565093 0.172327 0.577592
v 0.145448 0.172327 0.000000
v 1.244093 0.172327 0.356971
v 1.244093 0.172327 -0.356971
v 0.565093 0.172327 -0.577592
vt 0.196511 0.508717
vt 0.196511 0.017014
vt 0.485527 0.110921
vt 0.734762 0.134738
vt 0.885385 0.342053
vt 0.734762 0.390993
vt 1.000000 0.425325
vt 0.985527 0.110921
vt 1.000000 0.100406
vt 0.500000 0.262865
vt 0.696511 0.508717
vt 0.690983 0.525731
vt 0.696511 0.017014
vt 0.690983 0.000000
vt 0.985527 0.414810
vt 0.517890 0.262865
vt 0.485527 0.414810
vt 0.500000 0.100406
vt 0.500000 0.425325
vt 0.000000 0.262866
vt 0.017890 0.262866
vt 0.190983 0.525731
vt 0.190983 0.000000
vt 0.624440 0.262865
vt 0.729437 0.118349
vt 0.729437 0.407382
vt 0.899326 0.352182
vt 0.899326 0.173550
vt 0.641672 0.262866
vt 0.885385 0.183678
vt 0.041016 0.611328
vt 1.000000 0.686523
vt 0.000000 0.686523
vt 0.041016 0.611328
vt 1.000000 0.686523
vt 0.000000 0.686523
vt 0.957031 0.611328
vt 0.000000 0.686523
vt 0.041016 0.611328
vt 0.957031 0.611328
vt 0.000000 0.686523
vt 0.041016 0.611328
vt 0.957031 0.611328
vt 0.000000 0.686523
vt 0.041016 0.611328
vt 0.957031 0.611328
vt 0.957031 0.611328
vt 1.000000 0.686523
vt 1.000000 0.686523
vt 1.000000 0.686523
vn -0.0000 1.0000 0.0000
vn -0.1996 -0.9799 -0.0000
vn 0.1615 -0.9799 -0.1173
vn 0.1615 -0.9799 0.1173
vn -0.8090 0.0000 0.5878
vn 0.2281 -0.6748 0.7019
vn 0.3090 0.0000 0.9511
vn 0.3090 0.0000 -0.9511
vn -0.5971 -0.6748 -0.4338
vn -0.8090 -0.0000 -0.5878
vn 0.7380 -0.6748 -0.0000
vn 1.0000 -0.0000 0.0000
vn -0.5971 -0.6748 0.4338
vn 0.2281 -0.6748 -0.7019
vn 0.2281 0.6748 -0.7019
vn -0.5971 0.6748 -0.4338
vn -0.5971 0.6748 0.4338
vn 0.2281 0.6748 0.7019
vn 0.7380 0.6748 -0.0000
vn -0.0269 -0.9962 0.0828
vn 0.0000 -1.0000 0.0000
vn -0.0871 -0.9962 0.0000
vn 0.0704 -0.9962 0.0512
vn 0.0704 -0.9962 -0.0512
vn -0.0269 -0.9962 -0.0828
vn -0.0617 -0.9799 0.1898
vn -0.0617 -0.9799 -0.1898
usemtl om_wall_20b
s 1
f 183/381/143 185/382/143 181/383/143
f 187/384/144 189/385/145 188/386/146
f 191/387/147 200/388/148 192/389/149
f 193/390/150 198/391/151 194/392/152
f 192/389/149 197/393/153 195/394/154
f 194/392/152 199/395/155 191/387/147
f 195/394/154 196/396/156 193/390/150
f 182/397/157 195/398/154 193/399/150
f 183/381/158 191/400/147 184/401/159
f 185/382/160 195/398/154 181/383/161
f 182/397/157 194/402/152 183/381/158
f 184/401/159 192/403/149 185/382/160
f 201/404/162 197/393/163 202/405/164
f 203/406/165 196/396/163 201/404/162
f 204/407/166 198/391/163 203/406/165
f 205/408/167 199/395/163 204/407/166
f 202/405/164 200/388/163 205/408/167
f 181/383/143 182/397/143 183/381/143
f 183/381/143 184/401/143 185/382/143
f 188/386/146 186/409/168 187/384/144
f 187/384/144 190/410/169 189/385/145
f 191/387/147 199/395/155 200/388/148
f 193/390/150 196/396/156 198/391/151
f 192/389/149 200/388/148 197/393/153
f 194/392/152 198/391/151 199/395/155
f 195/394/154 197/393/153 196/396/156
f 182/397/157 181/383/161 195/398/154
f 183/381/158 194/402/152 191/400/147
f 185/382/160 192/403/149 195/398/154
f 182/397/157 193/399/150 194/402/152
f 184/401/159 191/400/147 192/403/149
f 201/404/162 196/396/163 197/393/163
f 203/406/165 198/391/163 196/396/163
f 204/407/166 199/395/163 198/391/163
f 205/408/167 200/388/163 199/395/163
f 202/405/164 197/393/163 200/388/163
usemtl om_decals_01a_om_decals_01a.png
f 187/411/144 201/412/162 202/413/164
f 186/414/168 203/415/165 201/416/162
f 189/417/145 203/418/165 188/419/146
f 190/420/169 204/421/166 189/422/145
f 187/423/144 205/424/167 190/425/169
f 187/411/144 186/426/168 201/412/162
f 186/414/168 188/427/146 203/415/165
f 189/417/145 204/428/166 203/418/165
f 190/420/169 205/429/167 204/421/166
f 187/423/144 202/430/164 205/424/167
o om_full_03a.011_om_full_03a.015
v 1.664155 0.015625 3.009836
v 1.029992 0.015625 2.787355
v 2.166847 0.015625 2.417968
v 1.784570 0.015625 2.970711
v 1.784570 0.171875 2.970711
v 1.664155 0.171875 3.009836
v 1.029992 0.171875 2.787355
v 2.166847 0.171875 2.417968
vt -0.127058 0.121534
vt 0.000000 0.000000
vt -0.116010 0.121534
vt -0.945312 0.000000
vt 0.000000 0.015625
vt -0.945312 0.015625
vt -0.243068 -0.046875
vt 0.000000 -0.007812
vt -0.243068 -0.007813
vt 0.000000 -0.878906
vt -0.127058 -1.000440
vt -0.116010 -1.000440
vt -0.243068 -0.000000
vt 0.000000 0.000000
vt 0.000000 -0.046875
vt -0.243068 -0.878906
vn -0.0000 -1.0000 0.0000
vn 0.3090 0.0000 0.9511
vn -0.3090 0.0000 -0.9511
vn 0.0000 1.0000 -0.0000
usemtl om_decals_01a
s 1
f 206/431/170 208/432/170 209/433/170
f 210/434/171 206/435/171 209/436/171
f 212/437/172 208/438/172 207/439/172
f 213/440/173 211/441/173 210/442/173
f 206/431/170 207/443/170 208/432/170
f 210/434/171 211/444/171 206/435/171
f 212/437/172 213/445/172 208/438/172
f 213/440/173 212/446/173 211/441/173
o om_full_03a.009_om_full_03a.013
v -1.753704 0.015625 -1.899306
v -1.109885 0.015625 -2.092067
v -1.812500 0.015625 -1.125000
v -1.828125 0.015625 -1.796875
v -1.828125 0.171875 -1.796875
v -1.753704 0.171875 -1.899306
v -1.109885 0.171875 -2.092067
v -1.812500 0.171875 -1.125000
v 1.784569 0.015625 -2.970711
v 2.166846 0.015625 -2.417969
v 1.029991 0.015625 -2.787355
v 1.664153 0.015625 -3.009837
v 1.664153 0.171875 -3.009837
v 1.784569 0.171875 -2.970711
v 2.166846 0.171875 -2.417969
v 1.029991 0.171875 -2.787355
v 3.896923 0.015625 0.063305
v 3.489364 0.015625 0.597679
v 3.489364 0.015625 -0.597681
v 3.896923 0.015625 -0.063307
v 3.896923 0.171875 -0.063307
v 3.896923 0.171875 0.063305
v 3.489364 0.171875 0.597679
v 3.489364 0.171875 -0.597681
v 1.664155 0.015625 3.009836
v 1.029992 0.015625 2.787355
v 2.166847 0.015625 2.417968
v 1.784570 0.015625 2.970711
v 1.784570 0.171875 2.970711
v 1.664155 0.171875 3.009836
v 1.029992 0.171875 2.787355
v 2.166847 0.171875 2.417968
v -1.828125 0.015625 1.796875
v -1.812500 0.015625 1.125000
v -1.109885 0.015625 2.092067
v -1.753705 0.015625 1.899306
v -1.753705 0.171875 1.899306
v -1.828125 0.171875 1.796875
v -1.812500 0.171875 1.125000
v -1.109885 0.171875 2.092067
vt -0.127058 -0.121534
vt 0.000000 -0.000000
vt -0.116010 -0.121534
vt -0.127453 -0.025391
vt -0.089688 -0.041016
vt -0.127453 -0.041016
vt -0.243068 0.046875
vt 0.000000 0.007812
vt -0.243068 0.007813
vt 0.000000 0.878906
vt -0.127058 1.000440
vt -0.116010 1.000440
vt -0.127058 -0.121534
vt 0.000000 -0.000000
vt -0.116010 -0.121534
vt -0.127453 -0.025391
vt -0.089688 -0.041016
vt -0.127453 -0.041016
vt -0.243068 0.046875
vt 0.000000 0.007812
vt -0.243068 0.007813
vt 0.000000 0.878906
vt -0.127058 1.000440
vt -0.116010 1.000440
vt -0.243068 0.000000
vt -0.116010 -0.121534
vt -0.127058 -0.121534
vt -0.127453 -0.025391
vt -0.089688 -0.041016
vt -0.127453 -0.041016
vt -0.243068 0.007813
vt 0.000000 0.046875
vt 0.000000 0.007812
vt 0.000000 0.878906
vt -0.127058 1.000440
vt -0.116010 1.000440
vt -0.127058 -0.121534
vt 0.000000 -0.000000
vt -0.116010 -0.121534
vt -0.127453 -0.025391
vt -0.089688 -0.041016
vt -0.127453 -0.041016
vt -0.243068 0.046875
vt 0.000000 0.007812
vt -0.243068 0.007813
vt 0.000000 0.878906
vt -0.127058 1.000440
vt -0.116010 1.000440
vt -0.243068 0.000000
vt -0.116010 -0.121534
vt -0.127058 -0.121534
vt -0.127453 -0.025391
vt -0.089688 -0.041016
vt -0.127453 -0.041016
vt -0.243068 0.046875
vt 0.000000 0.007812
vt -0.243068 0.007813
vt -0.116010 1.000440
vt -0.243068 0.878906
vt -0.127058 1.000440
vt -0.243068 0.000000
vt -0.089688 -0.025391
vt 0.000000 0.046875
vt -0.243068 0.878906
vt -0.243068 0.000000
vt -0.089688 -0.025391
vt 0.000000 0.046875
vt -0.243068 0.878906
vt 0.000000 -0.000000
vt -0.089688 -0.025391
vt -0.243068 0.046875
vt -0.243068 0.878906
vt -0.243068 0.000000
vt -0.089688 -0.025391
vt 0.000000 0.046875
vt -0.243068 0.878906
vt 0.000000 -0.000000
vt -0.089688 -0.025391
vt 0.000000 0.046875
vt 0.000000 0.878906
vn -0.0000 -1.0000 -0.0000
vn -0.8090 0.0000 -0.5878
vn 0.8090 0.0000 0.5878
vn 0.0000 1.0000 0.0000
vn 0.3090 0.0000 -0.9511
vn -0.3090 0.0000 0.9511
vn 1.0000 -0.0000 0.0000
vn -1.0000 0.0000 0.0000
vn 0.3090 0.0000 0.9511
vn -0.3090 0.0000 -0.9511
vn -0.8090 0.0000 0.5878
vn 0.8090 -0.0000 -0.5878
usemtl om_decals_01a
s 1
f 214/447/174 216/448/174 217/449/174
f 218/450/175 214/451/175 217/452/175
f 220/453/176 216/454/176 215/455/176
f 221/456/177 219/457/177 218/458/177
f 222/459/174 224/460/174 225/461/174
f 226/462/178 222/463/178 225/464/178
f 228/465/179 224/466/179 223/467/179
f 229/468/177 227/469/177 226/470/177
f 231/471/174 233/472/174 230/473/174
f 234/474/180 230/475/180 233/476/180
f 231/477/181 237/478/181 232/479/181
f 237/480/177 235/481/177 234/482/177
f 238/483/174 240/484/174 241/485/174
f 242/486/182 238/487/182 241/488/182
f 244/489/183 240/490/183 239/491/183
f 245/492/177 243/493/177 242/494/177
f 247/495/174 249/496/174 246/497/174
f 250/498/184 246/499/184 249/500/184
f 252/501/185 248/502/185 247/503/185
f 250/504/177 252/505/177 251/506/177
f 214/447/174 215/507/174 216/448/174
f 218/450/175 219/508/175 214/451/175
f 220/453/176 221/509/176 216/454/176
f 221/456/177 220/510/177 219/457/177
f 222/459/174 223/511/174 224/460/174
f 226/462/178 227/512/178 222/463/178
f 228/465/179 229/513/179 224/466/179
f 229/468/177 228/514/177 227/469/177
f 231/471/174 232/515/174 233/472/174
f 234/474/180 235/516/180 230/475/180
f 231/477/181 236/517/181 237/478/181
f 237/480/177 236/518/177 235/481/177
f 238/483/174 239/519/174 240/484/174
f 242/486/182 243/520/182 238/487/182
f 244/489/183 245/521/183 240/490/183
f 245/492/177 244/522/177 243/493/177
f 247/495/174 248/523/174 249/496/174
f 250/498/184 251/524/184 246/499/184
f 252/501/185 253/525/185 248/502/185
f 250/504/177 253/526/177 252/505/177
o om_full_03a.005_om_full_03a.009
v 0.285292 0.031250 0.725909
v 0.322028 0.093750 0.776473
v -0.373220 0.093750 1.281601
v -0.409957 0.031250 1.231037
v -0.483430 0.031250 1.129910
v -0.520167 0.093750 1.079346
v 0.211819 0.031250 0.624782
v 0.175082 0.093750 0.574219
v -0.711169 0.031250 1.720271
v -0.674433 0.093750 1.770834
v 0.285292 0.156250 0.725909
v 0.211819 0.156250 0.624782
v -0.483430 0.156250 1.129910
v -0.409957 0.156250 1.231037
v -0.711169 0.156250 1.720271
v -0.082074 0.156250 0.220274
v -0.118810 0.093750 0.169710
v -0.814059 0.093750 0.674838
v -0.777323 0.156250 0.725402
v -0.703850 0.156250 0.826529
v -0.667113 0.093750 0.877092
v -0.008601 0.156250 0.321401
v 0.028136 0.093750 0.371964
v -1.335691 0.156250 0.860690
v -1.372427 0.093750 0.810126
v -0.082074 0.031250 0.220274
v -0.008601 0.031250 0.321401
v -0.703850 0.031250 0.826529
v -0.777323 0.031250 0.725402
v -1.335691 0.031250 0.860690
v -1.347985 0.031250 1.912555
v -1.421458 0.031250 1.811427
v -1.458195 0.093750 1.760863
v -1.182670 0.093750 2.140091
v -1.219406 0.031250 2.089527
v -1.421458 0.156250 1.811427
v -1.347985 0.156250 1.912555
v -1.219406 0.156250 2.089527
v -1.715351 0.156250 1.406919
v -1.641877 0.156250 1.508045
v -1.605140 0.093750 1.558609
v -1.880666 0.093750 1.179382
v -1.843928 0.156250 1.229946
v -1.641877 0.031250 1.508045
v -1.715351 0.031250 1.406919
v -1.843928 0.031250 1.229946
v 0.704277 0.031250 -0.862046
v 0.644836 0.093750 -0.881360
v 0.910397 0.093750 -1.698674
v 0.969838 0.031250 -1.679360
v 1.088720 0.031250 -1.640733
v 1.148162 0.093750 -1.621420
v 0.823159 0.031250 -0.823419
v 0.882600 0.093750 -0.804106
v 0.925959 0.031250 -2.252206
v 0.866519 0.093750 -2.271520
v 0.704277 0.156250 -0.862046
v 0.823159 0.156250 -0.823419
v 1.088720 0.156250 -1.640733
v 0.969838 0.156250 -1.679360
v 0.925960 0.156250 -2.252207
v 1.298688 0.156250 -0.668911
v 1.358129 0.093750 -0.649597
v 1.623690 0.093750 -1.466911
v 1.564249 0.156250 -1.486225
v 1.445367 0.156250 -1.524852
v 1.385926 0.093750 -1.544166
v 1.179806 0.156250 -0.707538
v 1.120364 0.093750 -0.726851
v 1.936457 0.156250 -1.923876
v 1.995898 0.093750 -1.904563
v 1.298688 0.031250 -0.668911
v 1.179806 0.031250 -0.707538
v 1.445367 0.031250 -1.524852
v 1.564249 0.031250 -1.486225
v 1.936457 0.031250 -1.923876
v 1.328132 0.031250 -2.782079
v 1.447014 0.031250 -2.743451
v 1.506456 0.093750 -2.724138
v 1.060647 0.093750 -2.868989
v 1.120088 0.031250 -2.849675
v 1.447014 0.156250 -2.743451
v 1.328132 0.156250 -2.782079
v 1.120088 0.156250 -2.849675
v 1.922543 0.156250 -2.588943
v 1.803660 0.156250 -2.627570
v 1.744219 0.093750 -2.646883
v 2.190028 0.093750 -2.502032
v 2.130586 0.156250 -2.521345
v 1.803660 0.031250 -2.627570
v 1.922543 0.031250 -2.588943
v 2.130586 0.031250 -2.521345
v 1.557635 0.031250 -0.312500
v 1.557635 0.093750 -0.375000
v 2.417010 0.093750 -0.375000
v 2.417010 0.031250 -0.312500
v 2.417010 0.031250 -0.187500
v 2.417010 0.093750 -0.125000
v 1.557635 0.031250 -0.187500
v 1.557635 0.093750 -0.125000
v 2.948259 0.031250 -0.531251
v 2.948260 0.093750 -0.593750
v 1.557635 0.156250 -0.312500
v 1.557635 0.156250 -0.187500
v 2.417010 0.156250 -0.187500
v 2.417010 0.156250 -0.312500
v 2.948260 0.156250 -0.531250
v 1.557635 0.156250 0.312500
v 1.557636 0.093750 0.375000
v 2.417010 0.093750 0.375000
v 2.417010 0.156250 0.312500
v 2.417010 0.156250 0.187500
v 2.417010 0.093750 0.125000
v 1.557635 0.156250 0.187500
v 1.557635 0.093750 0.125000
v 2.948260 0.156250 0.531250
v 2.948260 0.093750 0.593749
v 1.557635 0.031250 0.312500
v 1.557635 0.031250 0.187500
v 2.417010 0.031250 0.187500
v 2.417010 0.031250 0.312500
v 2.948260 0.031250 0.531250
v 3.576476 0.031250 -0.312501
v 3.576475 0.031250 -0.187501
v 3.576476 0.093750 -0.125000
v 3.576476 0.093750 -0.593751
v 3.576475 0.031250 -0.531251
v 3.576475 0.156250 -0.187501
v 3.576476 0.156250 -0.312501
v 3.576475 0.156250 -0.531251
v 3.576476 0.156250 0.312499
v 3.576475 0.156250 0.187499
v 3.576475 0.093750 0.124999
v 3.576476 0.093750 0.593750
v 3.576476 0.156250 0.531249
v 3.576475 0.031250 0.187499
v 3.576476 0.031250 0.312499
v 3.576476 0.031250 0.531249
v 1.298687 0.031250 0.668910
v 1.358129 0.093750 0.649597
v 1.623690 0.093750 1.466911
v 1.564249 0.031250 1.486225
v 1.445367 0.031250 1.524852
v 1.385926 0.093750 1.544165
v 1.179806 0.031250 0.707538
v 1.120365 0.093750 0.726851
v 1.936458 0.031250 1.923876
v 1.995899 0.093750 1.904562
v 1.298687 0.156250 0.668910
v 1.179806 0.156250 0.707538
v 1.445367 0.156250 1.524852
v 1.564249 0.156250 1.486225
v 1.936458 0.156250 1.923876
v 0.704278 0.156250 0.862046
v 0.644837 0.093750 0.881360
v 0.910398 0.093750 1.698674
v 0.969839 0.156250 1.679360
v 1.088721 0.156250 1.640733
v 1.148162 0.093750 1.621420
v 0.823160 0.156250 0.823419
v 0.882600 0.093750 0.804105
v 0.925960 0.156250 2.252206
v 0.866520 0.093750 2.271520
v 0.704278 0.031250 0.862046
v 0.823160 0.031250 0.823419
v 1.088721 0.031250 1.640733
v 0.969839 0.031250 1.679360
v 0.925960 0.031250 2.252206
v 1.922544 0.031250 2.588943
v 1.803662 0.031250 2.627569
v 1.744220 0.093750 2.646883
v 2.190029 0.093750 2.502031
v 2.130588 0.031250 2.521344
v 1.803662 0.156250 2.627569
v 1.922544 0.156250 2.588943
v 2.130588 0.156250 2.521344
v 1.328134 0.156250 2.782078
v 1.447016 0.156250 2.743450
v 1.506457 0.093750 2.724137
v 1.060649 0.093750 2.868989
v 1.120090 0.156250 2.849675
v 1.447016 0.031250 2.743450
v 1.328134 0.031250 2.782078
v 1.120090 0.031250 2.849675
v -0.082074 0.031250 -0.220274
v -0.118810 0.093750 -0.169710
v -0.814059 0.093750 -0.674838
v -0.777323 0.031250 -0.725402
v -0.703849 0.031250 -0.826529
v -0.667113 0.093750 -0.877092
v -0.008601 0.031250 -0.321401
v 0.028136 0.093750 -0.371965
v -1.335691 0.031250 -0.860690
v -1.372427 0.093750 -0.810127
v -0.082074 0.156250 -0.220274
v -0.008601 0.156250 -0.321401
v -0.703849 0.156250 -0.826529
v -0.777323 0.156250 -0.725402
v -1.335691 0.156250 -0.860690
v 0.285292 0.156250 -0.725909
v 0.322028 0.093750 -0.776473
v -0.373220 0.093750 -1.281601
v -0.409957 0.156250 -1.231037
v -0.483430 0.156250 -1.129910
v -0.520167 0.093750 -1.079347
v 0.211819 0.156250 -0.624782
v 0.175082 0.093750 -0.574219
v -0.711169 0.156250 -1.720271
v -0.674432 0.093750 -1.770834
v 0.285292 0.031250 -0.725909
v 0.211819 0.031250 -0.624782
v -0.483430 0.031250 -1.129910
v -0.409957 0.031250 -1.231037
v -0.711169 0.031250 -1.720271
v -1.715351 0.031250 -1.406919
v -1.641877 0.031250 -1.508046
v -1.605140 0.093750 -1.558610
v -1.880665 0.093750 -1.179382
v -1.843928 0.031250 -1.229946
v -1.641877 0.156250 -1.508046
v -1.715351 0.156250 -1.406919
v -1.843928 0.156250 -1.229946
v -1.347985 0.156250 -1.912554
v -1.421458 0.156250 -1.811427
v -1.458194 0.093750 -1.760863
v -1.182670 0.093750 -2.140091
v -1.219406 0.156250 -2.089526
v -1.421458 0.031250 -1.811427
v -1.347985 0.031250 -1.912554
v -1.219406 0.031250 -2.089526
vt -0.496094 -0.148437
vt -0.238281 -0.126340
vt -0.238281 -0.148437
vt -0.496094 -0.148437
vt -0.753906 -0.179688
vt -0.753906 -0.148438
vt -0.496094 -0.148437
vt -0.753906 -0.179688
vt -0.753906 -0.148438
vt 0.015625 -0.183594
vt -0.199219 -0.205691
vt -0.199219 -0.183594
vt -0.371094 -0.234375
vt -0.496094 -0.179687
vt -0.238281 -0.179687
vt -0.238281 -0.179687
vt -0.023438 -0.148437
vt -0.023438 -0.179687
vt -0.238281 -0.126340
vt -0.238281 -0.148437
vt -0.496094 -0.179687
vt -0.621094 -0.234375
vt -0.496094 -0.234375
vt -0.621094 -0.258472
vt -0.621094 -0.234375
vt -0.058594 -0.205691
vt -0.201721 -0.183664
vt -0.058594 -0.183594
vt -0.968750 -0.148437
vt -0.968750 -0.179687
vt -0.753906 -0.126340
vt -0.371094 -0.258472
vt -0.496094 -0.234375
vt -0.371094 -0.234375
vt -0.808594 -0.205691
vt -1.023438 -0.183594
vt -0.808594 -0.183594
vt -0.496094 -0.148437
vt -0.371094 -0.258472
vt -0.496094 -0.234375
vt -0.830116 -0.183814
vt -0.964844 -0.205691
vt -0.964844 -0.183594
vt 0.015625 -0.205691
vt -0.199219 -0.183594
vt 0.015625 -0.183594
vt -0.496094 -0.179687
vt -0.496094 -0.179687
vt -0.023438 -0.179687
vt -0.023438 -0.126340
vt -0.023438 -0.148437
vt -0.058594 -0.205691
vt -0.201721 -0.183664
vt -0.058594 -0.183594
vt -0.968750 -0.148437
vt -0.968750 -0.179687
vt -0.968750 -0.126340
vt -0.496094 -0.126340
vt -0.753906 -0.126340
vt -0.808594 -0.205691
vt -1.023438 -0.183594
vt -0.808594 -0.183594
vt -0.496094 -0.234375
vt -0.621094 -0.258472
vt -0.830116 -0.183814
vt -0.964844 -0.205691
vt -0.964844 -0.183594
vt -0.496094 -0.148437
vt -0.238281 -0.126340
vt -0.238281 -0.148437
vt -0.496094 -0.148437
vt -0.753906 -0.179688
vt -0.753906 -0.148438
vt -0.496094 -0.148437
vt -0.753906 -0.179688
vt -0.753906 -0.148438
vt 0.015625 -0.205691
vt -0.199219 -0.183594
vt 0.015625 -0.183594
vt -0.371094 -0.234375
vt -0.496094 -0.179687
vt -0.238281 -0.179687
vt -0.238281 -0.179687
vt -0.023438 -0.148437
vt -0.023438 -0.179687
vt -0.238281 -0.148437
vt -0.023438 -0.126340
vt -0.496094 -0.179687
vt -0.621094 -0.234375
vt -0.496094 -0.234375
vt -0.621094 -0.258472
vt -0.621094 -0.234375
vt -0.058594 -0.205691
vt -0.201721 -0.183664
vt -0.058594 -0.183594
vt -0.968750 -0.148437
vt -0.968750 -0.179687
vt -0.968750 -0.126340
vt -0.371094 -0.258472
vt -0.496094 -0.234375
vt -0.371094 -0.234375
vt -0.808594 -0.183594
vt -1.023438 -0.205691
vt -1.023438 -0.183594
vt -0.496094 -0.148437
vt -0.371094 -0.258472
vt -0.496094 -0.234375
vt -0.830116 -0.183814
vt -0.964844 -0.205691
vt -0.964844 -0.183594
vt 0.015625 -0.205691
vt -0.199219 -0.183594
vt 0.015625 -0.183594
vt -0.496094 -0.179687
vt -0.496094 -0.179687
vt -0.023438 -0.179687
vt -0.023438 -0.126340
vt -0.023438 -0.148437
vt -0.058594 -0.205691
vt -0.201721 -0.183664
vt -0.058594 -0.183594
vt -0.968750 -0.179687
vt -0.968750 -0.126340
vt -0.968750 -0.148437
vt -0.496094 -0.126340
vt -0.753906 -0.126340
vt -0.808594 -0.205691
vt -1.023438 -0.183594
vt -0.808594 -0.183594
vt -0.238281 -0.126340
vt -0.496094 -0.234375
vt -0.621094 -0.258472
vt -0.830116 -0.183814
vt -0.964844 -0.205691
vt -0.964844 -0.183594
vt -0.753906 -0.126340
vt -0.496094 -0.148437
vt -0.238281 -0.126340
vt -0.238281 -0.148437
vt -0.496094 -0.148437
vt -0.753906 -0.179688
vt -0.753906 -0.148438
vt -0.496094 -0.148437
vt -0.753906 -0.179688
vt -0.753906 -0.148438
vt 0.015625 -0.205691
vt -0.199219 -0.183594
vt 0.015625 -0.183594
vt -0.371094 -0.234375
vt -0.496094 -0.179687
vt -0.238281 -0.179687
vt -0.238281 -0.179687
vt -0.023438 -0.148437
vt -0.023438 -0.179687
vt -0.238281 -0.126340
vt -0.238281 -0.148437
vt -0.496094 -0.179687
vt -0.621094 -0.234375
vt -0.496094 -0.234375
vt -0.621094 -0.258472
vt -0.621094 -0.234375
vt -0.058594 -0.205691
vt -0.201721 -0.183664
vt -0.058594 -0.183594
vt -0.968750 -0.148437
vt -0.968750 -0.179687
vt -0.968750 -0.126340
vt -0.371094 -0.258472
vt -0.496094 -0.234375
vt -0.371094 -0.234375
vt -0.808594 -0.183594
vt -1.023438 -0.205691
vt -1.023438 -0.183594
vt -0.496094 -0.148437
vt -0.371094 -0.258472
vt -0.496094 -0.234375
vt -0.830116 -0.183814
vt -0.964844 -0.205691
vt -0.964844 -0.183594
vt 0.015625 -0.205691
vt -0.199219 -0.183594
vt 0.015625 -0.183594
vt -0.496094 -0.179687
vt -0.496094 -0.179687
vt -0.023438 -0.179687
vt -0.023438 -0.126340
vt -0.023438 -0.148437
vt -0.058594 -0.205691
vt -0.201721 -0.183664
vt -0.058594 -0.183594
vt -0.968750 -0.148437
vt -0.968750 -0.179687
vt -0.753906 -0.126340
vt -0.808594 -0.205691
vt -1.023438 -0.183594
vt -0.808594 -0.183594
vt -0.496094 -0.234375
vt -0.621094 -0.258472
vt -0.830116 -0.183814
vt -0.964844 -0.205691
vt -0.964844 -0.183594
vt -0.753906 -0.126340
vt -0.496094 -0.148437
vt -0.238281 -0.126340
vt -0.238281 -0.148437
vt -0.496094 -0.148437
vt -0.753906 -0.179688
vt -0.753906 -0.148438
vt -0.496094 -0.148437
vt -0.753906 -0.179688
vt -0.753906 -0.148438
vt 0.015625 -0.205691
vt -0.199219 -0.183594
vt 0.015625 -0.183594
vt -0.371094 -0.234375
vt -0.496094 -0.179687
vt -0.238281 -0.179687
vt -0.238281 -0.148437
vt -0.023438 -0.179687
vt -0.238281 -0.179687
vt -0.023438 -0.126340
vt -0.023438 -0.148437
vt -0.496094 -0.179687
vt -0.621094 -0.234375
vt -0.496094 -0.234375
vt -0.621094 -0.258472
vt -0.621094 -0.234375
vt -0.058594 -0.205691
vt -0.201721 -0.183664
vt -0.058594 -0.183594
vt -0.968750 -0.148437
vt -0.968750 -0.179687
vt -0.968750 -0.126340
vt -0.371094 -0.258472
vt -0.496094 -0.234375
vt -0.371094 -0.234375
vt -0.808594 -0.183594
vt -1.023438 -0.205691
vt -1.023438 -0.183594
vt -0.496094 -0.148437
vt -0.371094 -0.258472
vt -0.496094 -0.234375
vt -0.830116 -0.183814
vt -0.964844 -0.205691
vt -0.964844 -0.183594
vt 0.015625 -0.205691
vt -0.199219 -0.183594
vt 0.015625 -0.183594
vt -0.496094 -0.179687
vt -0.496094 -0.179687
vt -0.023438 -0.179687
vt -0.023438 -0.148437
vt -0.058594 -0.205691
vt -0.201721 -0.183664
vt -0.058594 -0.183594
vt -0.968750 -0.179687
vt -0.968750 -0.126340
vt -0.968750 -0.148437
vt -0.753906 -0.126340
vt -0.808594 -0.183594
vt -1.023438 -0.205691
vt -1.023438 -0.183594
vt -0.238281 -0.126340
vt -0.496094 -0.234375
vt -0.621094 -0.258472
vt -0.830116 -0.183814
vt -0.964844 -0.205691
vt -0.964844 -0.183594
vt -0.753906 -0.126340
vt -0.496094 -0.148437
vt -0.238281 -0.126340
vt -0.238281 -0.148437
vt -0.496094 -0.148437
vt -0.753906 -0.179688
vt -0.753906 -0.148438
vt -0.496094 -0.148437
vt -0.753906 -0.179688
vt -0.753906 -0.148438
vt 0.015625 -0.205691
vt -0.199219 -0.183594
vt 0.015625 -0.183594
vt -0.371094 -0.234375
vt -0.496094 -0.179687
vt -0.238281 -0.179687
vt -0.238281 -0.179687
vt -0.023438 -0.148437
vt -0.023438 -0.179687
vt -0.238281 -0.148437
vt -0.023438 -0.126340
vt -0.496094 -0.179687
vt -0.621094 -0.234375
vt -0.496094 -0.234375
vt -0.621094 -0.258472
vt -0.621094 -0.234375
vt -0.058594 -0.205691
vt -0.201721 -0.183664
vt -0.058594 -0.183594
vt -0.968750 -0.148437
vt -0.968750 -0.179687
vt -0.968750 -0.126340
vt -0.371094 -0.258472
vt -0.496094 -0.234375
vt -0.371094 -0.234375
vt -0.808594 -0.183594
vt -1.023438 -0.205691
vt -1.023438 -0.183594
vt -0.496094 -0.148437
vt -0.371094 -0.258472
vt -0.496094 -0.234375
vt -0.830116 -0.183814
vt -0.964844 -0.205691
vt -0.964844 -0.183594
vt 0.015625 -0.205691
vt -0.199219 -0.183594
vt 0.015625 -0.183594
vt -0.496094 -0.179687
vt -0.496094 -0.179687
vt -0.023438 -0.179687
vt -0.023438 -0.148437
vt -0.058594 -0.205691
vt -0.201721 -0.183664
vt -0.058594 -0.183594
vt -0.968750 -0.179687
vt -0.968750 -0.126340
vt -0.968750 -0.148437
vt -0.753906 -0.126340
vt -0.808594 -0.183594
vt -1.023438 -0.205691
vt -1.023438 -0.183594
vt -0.238281 -0.126340
vt -0.496094 -0.234375
vt -0.621094 -0.258472
vt -0.830116 -0.183814
vt -0.964844 -0.205691
vt -0.964844 -0.183594
vt -0.753906 -0.126340
vt 0.015625 -0.205691
vt -0.023438 -0.126340
vt -0.496094 -0.258472
vt -0.201721 -0.205761
vt -0.968750 -0.126340
vt -1.023438 -0.205691
vt -0.496094 -0.258472
vt -0.830116 -0.205911
vt -0.199219 -0.205691
vt -0.201721 -0.205761
vt -1.023438 -0.205691
vt -0.496094 -0.126340
vt -0.830116 -0.205911
vt -0.199219 -0.205691
vt -0.496094 -0.258472
vt -0.201721 -0.205761
vt -0.808594 -0.205691
vt -0.496094 -0.258472
vt -0.830116 -0.205911
vt -0.199219 -0.205691
vt -0.201721 -0.205761
vt -1.023438 -0.205691
vt -0.496094 -0.126340
vt -0.830116 -0.205911
vt -0.496094 -0.126340
vt -0.199219 -0.205691
vt -0.023438 -0.126340
vt -0.496094 -0.258472
vt -0.201721 -0.205761
vt -0.808594 -0.205691
vt -0.496094 -0.258472
vt -0.830116 -0.205911
vt -0.199219 -0.205691
vt -0.201721 -0.205761
vt -0.968750 -0.126340
vt -1.023438 -0.205691
vt -0.496094 -0.126340
vt -0.830116 -0.205911
vt -0.496094 -0.126340
vt -0.199219 -0.205691
vt -0.496094 -0.258472
vt -0.201721 -0.205761
vt -0.808594 -0.205691
vt -0.496094 -0.258472
vt -0.830116 -0.205911
vt -0.199219 -0.205691
vt -0.023438 -0.126340
vt -0.201721 -0.205761
vt -0.808594 -0.205691
vt -0.496094 -0.126340
vt -0.830116 -0.205911
vt -0.496094 -0.126340
vt -0.199219 -0.205691
vt -0.496094 -0.258472
vt -0.201721 -0.205761
vt -0.808594 -0.205691
vt -0.496094 -0.258472
vt -0.830116 -0.205911
vt -0.199219 -0.205691
vt -0.023438 -0.126340
vt -0.201721 -0.205761
vt -0.808594 -0.205691
vt -0.496094 -0.126340
vt -0.830116 -0.205911
vn 0.2249 0.9239 0.3096
vn 0.5878 0.0000 0.8090
vn 0.2249 -0.9239 0.3096
vn -0.0000 -1.0000 -0.0000
vn -0.2249 0.9239 -0.3096
vn 0.0000 1.0000 -0.0000
vn 0.4156 -0.7071 0.5721
vn 0.5258 -0.7000 0.4832
vn 0.5257 -0.7000 0.4834
vn -0.1641 0.9045 -0.3935
vn -0.5878 0.0000 -0.8090
vn -0.4156 -0.7071 -0.5721
vn -0.2249 -0.9239 -0.3096
vn -0.1680 -0.9043 -0.3925
vn 0.7316 0.0000 0.6818
vn 0.3214 0.9043 0.2810
vn 0.3236 -0.9045 0.2777
vn -0.4156 0.7071 -0.5721
vn 0.5258 0.7000 0.4832
vn 0.4156 0.7071 0.5721
vn 0.5257 0.7000 0.4833
vn -0.4223 0.0000 -0.9064
vn -0.2973 0.7000 -0.6493
vn -0.2972 0.7000 -0.6494
vn -0.2971 -0.7000 -0.6494
vn -0.2973 -0.7000 -0.6493
vn -0.3640 0.9239 -0.1183
vn -0.9511 -0.0000 -0.3090
vn -0.3640 -0.9239 -0.1183
vn 0.3640 0.9239 0.1183
vn -0.6725 -0.7071 -0.2185
vn -0.7094 -0.7000 -0.0821
vn 0.3641 0.9045 0.2219
vn 0.3640 -0.9239 0.1183
vn 0.6725 -0.7071 0.2185
vn 0.3666 -0.9043 0.2188
vn -0.9926 0.0000 -0.1215
vn -0.4252 0.9043 -0.0385
vn -0.7094 -0.7000 -0.0819
vn -0.4250 -0.9045 -0.0345
vn 0.6725 0.7071 0.2185
vn -0.7094 0.7000 -0.0821
vn -0.6725 0.7071 -0.2185
vn 0.8745 0.0000 0.4851
vn -0.7094 0.7000 -0.0820
vn 0.6222 0.7000 0.3505
vn 0.6221 0.7000 0.3507
vn 0.6221 -0.7000 0.3507
vn 0.6221 -0.7000 0.3506
vn 0.9511 0.0000 0.3090
vn -0.0000 0.9239 -0.3827
vn -0.0000 0.0000 -1.0000
vn -0.0000 -0.9239 -0.3827
vn -0.0000 0.9239 0.3827
vn -0.0000 -0.7071 -0.7071
vn -0.1411 -0.7000 -0.7000
vn -0.0985 0.9045 0.4149
vn 0.0000 0.0000 1.0000
vn 0.0000 -0.7071 0.7071
vn 0.0000 -0.9239 0.3827
vn -0.0948 -0.9043 0.4163
vn -0.1911 0.0000 -0.9816
vn -0.0948 0.9043 -0.4163
vn -0.1413 -0.7000 -0.7000
vn -0.0985 -0.9045 -0.4149
vn 0.0000 0.7071 0.7071
vn -0.1411 0.7000 -0.7000
vn -0.0000 0.7071 -0.7071
vn -0.1911 0.0000 0.9816
vn -0.1413 0.7000 -0.7000
vn -0.1411 0.7000 0.7000
vn -0.1413 0.7000 0.7000
vn -0.1413 -0.7000 0.7000
vn -0.1412 -0.7000 0.7000
vn 0.3640 0.9239 -0.1183
vn 0.9511 -0.0000 -0.3090
vn 0.3640 -0.9239 -0.1183
vn -0.3640 0.9239 0.1183
vn 0.6725 -0.7071 -0.2185
vn 0.6222 -0.7000 -0.3505
vn -0.4250 0.9045 0.0345
vn -0.3640 -0.9239 0.1183
vn -0.6725 -0.7071 0.2185
vn -0.4252 -0.9043 0.0385
vn 0.8745 0.0000 -0.4851
vn 0.3666 0.9043 -0.2188
vn 0.6221 -0.7000 -0.3507
vn 0.3641 -0.9045 -0.2219
vn -0.6725 0.7071 0.2185
vn 0.6222 0.7000 -0.3506
vn 0.6725 0.7071 -0.2185
vn -0.9926 0.0000 0.1215
vn 0.6221 0.7000 -0.3507
vn -0.7094 0.7000 0.0821
vn -0.7094 0.7000 0.0820
vn -0.7094 -0.7000 0.0821
vn -0.9511 0.0000 0.3090
vn -0.7094 -0.7000 0.0820
vn -0.2249 0.9239 0.3096
vn -0.5878 0.0000 0.8090
vn -0.2249 -0.9239 0.3096
vn 0.2249 0.9239 -0.3096
vn -0.4156 -0.7071 0.5721
vn -0.2973 -0.7000 0.6493
vn 0.3236 0.9045 -0.2777
vn 0.2249 -0.9239 -0.3096
vn 0.4156 -0.7071 -0.5721
vn 0.3214 -0.9043 -0.2810
vn -0.4223 0.0000 0.9064
vn -0.1680 0.9043 0.3925
vn -0.2972 -0.7000 0.6494
vn -0.1641 -0.9045 0.3935
vn 0.4156 0.7071 -0.5721
vn -0.2973 0.7000 0.6493
vn -0.4156 0.7071 0.5721
vn 0.7316 0.0000 -0.6818
vn -0.2972 0.7000 0.6494
vn 0.5256 0.7000 -0.4834
vn 0.5258 0.7000 -0.4833
vn 0.5256 -0.7000 -0.4834
vn 0.5878 0.0000 -0.8090
vn 0.5257 -0.7000 -0.4833
usemtl om_decals_02a_om_decals_02a.png
s 1
f 293/527/186 274/528/187 273/529/186
f 297/530/188 282/531/189 281/532/188
f 289/533/190 267/534/191 266/535/190
f 254/536/192 256/537/193 257/538/194
f 277/539/195 292/540/191 272/541/191
f 257/542/189 260/543/189 254/544/189
f 259/545/196 260/543/197 258/546/198
f 298/547/189 283/548/199 282/531/189
f 291/549/186 263/550/200 268/551/201
f 256/552/193 262/553/202 257/554/194
f 265/555/191 267/534/191 264/556/191
f 265/555/203 259/557/196 266/535/190
f 272/541/191 293/527/186 273/529/186
f 263/558/200 288/559/188 262/560/202
f 256/561/204 264/562/205 267/563/206
f 257/542/189 285/564/198 258/546/198
f 278/565/207 296/566/190 277/539/195
f 268/567/201 256/568/204 267/569/206
f 270/570/203 272/571/208 269/572/203
f 262/560/202 284/573/189 257/542/189
f 290/574/191 268/551/201 267/534/191
f 273/529/186 269/575/191 272/541/191
f 273/529/186 276/576/205 275/577/205
f 271/578/209 277/579/195 272/580/208
f 280/581/189 282/531/189 279/582/189
f 276/583/192 281/532/188 280/581/192
f 294/584/187 281/532/188 274/585/187
f 271/586/210 279/587/197 282/588/211
f 285/564/198 259/545/196 258/546/198
f 299/589/198 278/590/207 283/548/199
f 283/591/199 271/592/210 282/593/211
f 259/557/196 289/533/190 266/535/190
f 339/594/212 320/595/213 319/596/212
f 343/597/214 328/598/189 327/599/214
f 335/600/215 313/601/191 312/602/215
f 301/603/216 303/604/217 300/605/216
f 323/606/218 338/607/191 318/608/191
f 303/609/189 306/610/189 300/611/189
f 304/612/219 307/613/220 306/610/220
f 344/614/189 329/615/221 328/598/189
f 337/616/212 309/617/222 314/618/223
f 302/619/224 308/620/225 303/621/217
f 311/622/191 313/601/191 310/623/191
f 307/624/226 312/602/215 311/622/226
f 318/608/191 339/594/212 319/596/212
f 309/625/222 334/626/214 308/627/225
f 313/628/227 301/629/228 310/630/228
f 303/609/189 331/631/219 304/612/219
f 324/632/229 342/633/215 323/606/218
f 314/634/223 302/635/230 313/636/227
f 316/637/226 318/638/231 315/639/226
f 308/627/225 330/640/189 303/609/189
f 336/641/191 314/618/223 313/601/191
f 319/596/212 315/642/191 318/608/191
f 319/596/212 322/643/228 321/644/228
f 317/645/232 323/646/218 318/647/231
f 325/648/189 327/599/214 328/598/189
f 322/649/216 327/599/214 326/650/216
f 340/651/213 327/599/214 320/652/213
f 317/653/233 325/654/220 328/655/234
f 331/631/219 305/656/235 304/612/219
f 345/657/219 324/658/229 329/615/221
f 329/659/221 317/660/233 328/661/234
f 305/662/235 335/600/215 312/602/215
f 385/663/236 366/664/237 365/665/236
f 389/666/238 374/667/189 373/668/238
f 381/669/239 359/670/191 358/671/239
f 347/672/240 349/673/241 346/674/240
f 369/675/242 384/676/191 364/677/191
f 349/678/189 352/679/189 346/680/189
f 351/681/243 352/679/244 350/682/245
f 390/683/189 375/684/246 374/667/189
f 383/685/236 355/686/247 360/687/248
f 348/688/249 354/689/250 349/690/241
f 357/691/191 359/670/191 356/692/191
f 353/693/251 358/671/239 357/691/251
f 364/677/191 385/663/236 365/665/236
f 355/694/247 380/695/238 354/696/250
f 359/697/252 347/698/253 356/699/253
f 349/678/189 377/700/245 350/682/245
f 370/701/254 388/702/239 369/675/242
f 360/703/248 348/704/255 359/705/252
f 362/706/251 364/707/256 361/708/251
f 354/696/250 376/709/189 349/678/189
f 382/710/191 360/687/248 359/670/191
f 365/665/236 361/711/191 364/677/191
f 365/665/236 368/712/253 367/713/253
f 363/714/257 369/715/242 364/716/256
f 372/717/189 374/667/189 371/718/189
f 372/717/240 366/719/237 373/668/238
f 366/719/237 389/666/238 373/668/238
f 363/720/258 371/721/244 374/722/259
f 377/700/245 351/681/243 350/682/245
f 391/723/245 370/724/254 375/684/246
f 375/725/246 363/726/258 374/727/259
f 351/728/243 381/669/239 358/671/239
f 431/729/260 412/730/261 411/731/260
f 435/732/262 420/733/189 419/734/262
f 427/735/263 405/736/191 404/737/263
f 393/738/264 395/739/265 392/740/264
f 415/741/266 430/742/191 410/743/191
f 396/744/267 392/745/189 395/746/189
f 396/744/267 399/747/268 398/748/268
f 436/749/189 421/750/269 420/733/189
f 429/751/260 401/752/270 406/753/271
f 394/754/272 400/755/273 395/756/265
f 403/757/191 405/736/191 402/758/191
f 399/759/274 404/737/263 403/757/274
f 410/743/191 431/729/260 411/731/260
f 401/760/270 426/761/262 400/762/273
f 405/763/275 393/764/276 402/765/276
f 395/746/189 423/766/267 396/744/267
f 416/767/277 434/768/263 415/741/266
f 406/769/271 394/770/278 405/771/275
f 408/772/274 410/773/279 407/774/274
f 400/762/273 422/775/189 395/746/189
f 428/776/191 406/753/271 405/736/191
f 411/731/260 407/777/191 410/743/191
f 412/730/261 413/778/276 411/731/260
f 409/779/280 415/780/266 410/781/279
f 417/782/189 419/734/262 420/733/189
f 414/783/264 419/734/262 418/784/264
f 412/785/261 435/732/262 419/734/262
f 420/786/281 408/787/268 417/788/268
f 423/766/267 397/789/282 396/744/267
f 437/790/267 416/791/277 421/750/269
f 421/792/269 409/793/283 420/794/281
f 397/795/282 427/735/263 404/737/263
f 477/796/284 458/797/285 457/798/284
f 481/799/286 466/800/189 465/801/286
f 473/802/287 451/803/191 450/804/287
f 439/805/288 441/806/289 438/807/288
f 461/808/290 476/809/191 456/810/191
f 441/811/189 444/812/189 438/813/189
f 442/814/291 445/815/292 444/812/292
f 482/816/189 467/817/293 466/800/189
f 475/818/284 447/819/294 452/820/295
f 440/821/296 446/822/297 441/823/289
f 449/824/191 451/803/191 448/825/191
f 445/826/298 450/804/287 449/824/298
f 456/810/191 477/796/284 457/798/284
f 447/827/294 472/828/286 446/829/297
f 451/830/299 439/831/300 448/832/300
f 441/811/189 469/833/291 442/814/291
f 462/834/301 480/835/287 461/808/290
f 452/836/295 440/837/302 451/838/299
f 454/839/298 456/840/303 453/841/298
f 446/829/297 468/842/189 441/811/189
f 474/843/191 452/820/295 451/803/191
f 457/798/284 453/844/191 456/810/191
f 458/797/285 459/845/300 457/798/284
f 455/846/304 461/847/290 456/848/303
f 463/849/189 465/801/286 466/800/189
f 460/850/288 465/801/286 464/851/288
f 458/852/285 481/799/286 465/801/286
f 466/853/305 454/854/292 463/855/292
f 469/833/291 443/856/306 442/814/291
f 483/857/291 462/858/301 467/817/293
f 467/859/293 455/860/307 466/861/305
f 443/862/306 473/802/287 450/804/287
f 293/527/186 294/584/187 274/528/187
f 297/530/188 298/547/189 282/531/189
f 289/533/190 290/574/191 267/534/191
f 254/536/192 255/863/192 256/537/193
f 277/539/195 296/566/190 292/540/191
f 257/542/189 258/546/198 260/543/189
f 259/545/196 261/864/197 260/543/197
f 298/547/189 299/589/198 283/548/199
f 291/549/186 287/865/187 263/550/200
f 256/552/193 263/866/200 262/553/202
f 265/555/191 266/535/190 267/534/191
f 265/555/203 261/867/203 259/557/196
f 272/541/191 292/540/191 293/527/186
f 263/558/200 287/865/187 288/559/188
f 256/561/204 255/868/205 264/562/205
f 257/542/189 284/573/189 285/564/198
f 278/565/207 295/869/196 296/566/190
f 268/567/201 263/870/200 256/568/204
f 270/570/203 271/871/209 272/571/208
f 262/560/202 288/559/188 284/573/189
f 290/574/191 291/549/186 268/551/201
f 273/529/186 275/577/191 269/575/191
f 273/529/186 274/528/187 276/576/205
f 271/578/209 278/872/207 277/579/195
f 280/581/189 281/532/188 282/531/189
f 276/583/192 274/585/187 281/532/188
f 294/584/187 297/530/188 281/532/188
f 271/586/210 270/873/197 279/587/197
f 285/564/198 286/874/196 259/545/196
f 299/589/198 295/869/196 278/590/207
f 283/591/199 278/875/207 271/592/210
f 259/557/196 286/874/196 289/533/190
f 339/594/212 340/651/213 320/595/213
f 343/597/214 344/614/189 328/598/189
f 335/600/215 336/641/191 313/601/191
f 301/603/216 302/876/224 303/604/217
f 323/606/218 342/633/215 338/607/191
f 303/609/189 304/612/219 306/610/189
f 304/612/219 305/656/235 307/613/220
f 344/614/189 345/657/219 329/615/221
f 337/616/212 333/877/213 309/617/222
f 302/619/224 309/878/222 308/620/225
f 311/622/191 312/602/215 313/601/191
f 307/624/226 305/662/235 312/602/215
f 318/608/191 338/607/191 339/594/212
f 309/625/222 333/877/213 334/626/214
f 313/628/227 302/879/230 301/629/228
f 303/609/189 330/640/189 331/631/219
f 324/632/229 341/880/235 342/633/215
f 314/634/223 309/881/222 302/635/230
f 316/637/226 317/882/232 318/638/231
f 308/627/225 334/626/214 330/640/189
f 336/641/191 337/616/212 314/618/223
f 319/596/212 321/644/191 315/642/191
f 319/596/212 320/595/213 322/643/228
f 317/645/232 324/883/229 323/646/218
f 325/648/189 326/650/189 327/599/214
f 322/649/216 320/652/213 327/599/214
f 340/651/213 343/597/214 327/599/214
f 317/653/233 316/884/220 325/654/220
f 331/631/219 332/885/235 305/656/235
f 345/657/219 341/880/235 324/658/229
f 329/659/221 324/886/229 317/660/233
f 305/662/235 332/885/235 335/600/215
f 385/663/236 386/887/237 366/664/237
f 389/666/238 390/683/189 374/667/189
f 381/669/239 382/710/191 359/670/191
f 347/672/240 348/888/249 349/673/241
f 369/675/242 388/702/239 384/676/191
f 349/678/189 350/682/245 352/679/189
f 351/681/243 353/889/244 352/679/244
f 390/683/189 391/723/245 375/684/246
f 383/685/236 379/890/237 355/686/247
f 348/688/249 355/891/247 354/689/250
f 357/691/191 358/671/239 359/670/191
f 353/693/251 351/728/243 358/671/239
f 364/677/191 384/676/191 385/663/236
f 355/694/247 379/890/237 380/695/238
f 359/697/252 348/892/255 347/698/253
f 349/678/189 376/709/189 377/700/245
f 370/701/254 387/893/243 388/702/239
f 360/703/248 355/894/247 348/704/255
f 362/706/251 363/895/257 364/707/256
f 354/696/250 380/695/238 376/709/189
f 382/710/191 383/685/236 360/687/248
f 365/665/236 367/713/191 361/711/191
f 365/665/236 366/664/237 368/712/253
f 363/714/257 370/896/254 369/715/242
f 372/717/189 373/668/238 374/667/189
f 372/717/240 368/897/240 366/719/237
f 366/719/237 386/887/237 389/666/238
f 363/720/258 362/898/244 371/721/244
f 377/700/245 378/899/243 351/681/243
f 391/723/245 387/893/243 370/724/254
f 375/725/246 370/900/254 363/726/258
f 351/728/243 378/899/243 381/669/239
f 431/729/260 432/901/261 412/730/261
f 435/732/262 436/749/189 420/733/189
f 427/735/263 428/776/191 405/736/191
f 393/738/264 394/902/272 395/739/265
f 415/741/266 434/768/263 430/742/191
f 396/744/267 398/748/189 392/745/189
f 396/744/267 397/789/282 399/747/268
f 436/749/189 437/790/267 421/750/269
f 429/751/260 425/903/261 401/752/270
f 394/754/272 401/904/270 400/755/273
f 403/757/191 404/737/263 405/736/191
f 399/759/274 397/795/282 404/737/263
f 410/743/191 430/742/191 431/729/260
f 401/760/270 425/903/261 426/761/262
f 405/763/275 394/905/278 393/764/276
f 395/746/189 422/775/189 423/766/267
f 416/767/277 433/906/282 434/768/263
f 406/769/271 401/907/270 394/770/278
f 408/772/274 409/908/280 410/773/279
f 400/762/273 426/761/262 422/775/189
f 428/776/191 429/751/260 406/753/271
f 411/731/260 413/778/191 407/777/191
f 412/730/261 414/909/276 413/778/276
f 409/779/280 416/910/277 415/780/266
f 417/782/189 418/784/189 419/734/262
f 414/783/264 412/785/261 419/734/262
f 412/785/261 432/901/261 435/732/262
f 420/786/281 409/911/283 408/787/268
f 423/766/267 424/912/282 397/789/282
f 437/790/267 433/906/282 416/791/277
f 421/792/269 416/913/277 409/793/283
f 397/795/282 424/912/282 427/735/263
f 477/796/284 478/914/285 458/797/285
f 481/799/286 482/816/189 466/800/189
f 473/802/287 474/843/191 451/803/191
f 439/805/288 440/915/296 441/806/289
f 461/808/290 480/835/287 476/809/191
f 441/811/189 442/814/291 444/812/189
f 442/814/291 443/856/306 445/815/292
f 482/816/189 483/857/291 467/817/293
f 475/818/284 471/916/285 447/819/294
f 440/821/296 447/917/294 446/822/297
f 449/824/191 450/804/287 451/803/191
f 445/826/298 443/862/306 450/804/287
f 456/810/191 476/809/191 477/796/284
f 447/827/294 471/916/285 472/828/286
f 451/830/299 440/918/302 439/831/300
f 441/811/189 468/842/189 469/833/291
f 462/834/301 479/919/306 480/835/287
f 452/836/295 447/920/294 440/837/302
f 454/839/298 455/921/304 456/840/303
f 446/829/297 472/828/286 468/842/189
f 474/843/191 475/818/284 452/820/295
f 457/798/284 459/845/191 453/844/191
f 458/797/285 460/922/300 459/845/300
f 455/846/304 462/923/301 461/847/290
f 463/849/189 464/851/189 465/801/286
f 460/850/288 458/852/285 465/801/286
f 458/852/285 478/914/285 481/799/286
f 466/853/305 455/924/307 454/854/292
f 469/833/291 470/925/306 443/856/306
f 483/857/291 479/919/306 462/858/301
f 467/859/293 462/926/301 455/860/307
f 443/862/306 470/925/306 473/802/287
o om_full_03a.003
v 2.051667 0.062500 0.827827
v 1.941457 0.062500 0.979518
v 2.051667 0.125000 0.827827
v 1.941457 0.125000 0.979518
v -1.561028 0.062500 -1.565186
v -1.450818 0.062500 -1.716878
v -1.450818 0.125000 -1.716878
v -1.561028 0.125000 -1.565186
v 0.752764 0.062500 -0.115882
v 0.752764 0.125000 -0.115882
v 0.752764 0.125000 0.115882
v 0.801910 0.125000 -0.000000
v 0.752764 0.062500 0.115882
v 0.752764 0.062500 -0.115882
v 0.752764 0.125000 -0.115882
v 0.752764 0.125000 0.115882
v 0.752764 0.062500 0.115882
vt -0.588865 0.015625
vt -0.588865 0.000000
vt -0.588865 0.000000
vt -0.588865 0.015625
vt -0.588865 0.000000
vt -0.588865 0.000000
vt -0.588865 0.015625
vt -0.588865 0.015625
vn -1.0000 0.0000 -0.0000
usemtl om_decals_01a
s 1
f 492/927/308 494/928/308 493/929/308
f 497/930/308 499/931/308 498/932/308
f 492/927/308 496/933/308 494/928/308
f 497/930/308 500/934/308 499/931/308
l 484 485
l 484 486
l 486 487
l 490 491
l 488 489
o om_full_03a.001
v -1.811631 0.000000 -1.863141
v -2.000000 0.000000 -2.000002
v -2.000000 0.186510 2.000002
v -1.811631 0.000000 1.863141
v -2.000000 0.000000 2.000002
v 1.732273 0.186510 -3.014627
v 1.732273 0.000000 -3.014627
v 1.804226 0.000000 -3.236070
v -1.811631 0.186510 -1.863141
v -2.000003 0.186510 -1.999998
v 4.155368 0.186510 0.000000
v 4.155368 0.000000 0.000000
v 1.804224 0.186510 -3.236070
v 1.804225 0.186510 3.236070
v 1.804225 0.000000 3.236070
v 3.922529 0.186510 0.000001
v 3.922529 0.000000 0.000001
v -1.811630 0.186510 1.863142
v 1.732275 0.186510 3.014627
v 1.732275 0.000000 3.014627
vt 0.063716 0.461369
vt 0.445807 0.479185
vt 0.445808 0.461369
vt 0.233002 0.330550
vt 0.215900 0.681276
vt 0.215900 0.318125
vt 0.458881 0.461369
vt 0.814825 0.479185
vt 0.458881 0.479185
vt 0.445808 0.843460
vt 0.463801 0.474442
vt 0.445808 0.461369
vt 0.063716 0.461369
vt 0.427106 0.479185
vt 0.427107 0.461369
vt 0.233002 0.668851
vt 0.561277 0.793496
vt 0.802325 0.461369
vt 0.463801 0.479185
vt 0.463801 0.461369
vt 0.802325 0.558289
vt 0.463801 0.448296
vt 0.754926 0.461369
vt 0.445808 0.479185
vt 0.445808 0.461369
vt 0.753593 0.499701
vt 0.774732 0.499701
vt 0.351682 0.461369
vt 0.063716 0.479185
vt 0.351682 0.479185
vt 0.427107 0.388396
vt 0.629453 0.079278
vt 0.420234 0.367244
vt 0.827899 0.461369
vt 0.518780 0.479185
vt 0.518780 0.461369
vt 0.561277 0.205905
vt 0.157842 0.461369
vt 0.445808 0.479185
vt 0.445808 0.461369
vt 0.236061 0.152251
vt 0.438407 0.461369
vt 0.460649 0.461369
vt 0.809198 0.461369
vt 0.445808 0.479185
vt 0.420234 0.461369
vt 0.081710 0.479185
vt 0.420234 0.479185
vt 0.063716 0.652414
vt 0.420234 0.555495
vt 0.427107 0.534342
vt 0.063716 0.479185
vt 0.814825 0.461369
vt 0.463801 0.830387
vt 0.063716 0.479185
vt 0.554744 0.773392
vt 0.802325 0.479185
vt 0.809198 0.579442
vt 0.754926 0.479185
vt 0.063716 0.461369
vt 0.651694 0.079278
vt 0.827899 0.479185
vt 0.554745 0.226010
vt 0.157842 0.479185
vt 0.229188 0.173404
vt 0.809198 0.479185
vt 0.081710 0.461369
vt 0.081710 0.665488
vn -1.0000 -0.0000 0.0000
vn 0.0000 1.0000 -0.0000
vn 0.8090 0.0000 -0.5878
vn 0.8090 -0.0000 0.5878
vn -0.0000 -1.0000 -0.0000
vn -0.3090 0.0000 -0.9511
vn -0.3090 0.0000 0.9511
usemtl om_wall_20b
s 1
f 505/935/309 510/936/309 502/937/309
f 518/938/310 510/939/310 503/940/310
f 504/941/311 509/942/312 518/943/311
f 502/944/313 504/945/313 505/946/313
f 502/947/314 513/948/314 508/949/314
f 509/950/310 513/951/310 510/939/310
f 507/952/315 509/953/312 501/954/312
f 502/937/313 507/955/313 501/956/313
f 508/957/311 511/958/311 512/959/311
f 513/951/310 516/960/310 511/961/310
f 507/962/315 516/963/309 506/964/315
f 508/965/313 517/966/313 507/967/313
f 512/968/312 514/969/312 515/970/312
f 516/960/310 514/971/310 511/961/310
f 520/972/314 516/973/309 517/974/309
f 515/975/313 517/976/313 512/977/313
f 515/978/315 503/979/315 505/946/315
f 514/971/310 518/938/310 503/940/310
f 520/980/314 518/981/311 519/982/314
f 505/983/313 520/984/313 515/985/313
f 505/935/309 503/986/309 510/936/309
f 518/938/310 509/950/310 510/939/310
f 504/941/311 501/987/312 509/942/312
f 502/944/313 501/988/313 504/945/313
f 502/947/314 510/989/314 513/948/314
f 509/950/310 506/990/310 513/951/310
f 507/952/315 506/991/315 509/953/312
f 502/937/313 508/992/313 507/955/313
f 508/957/311 513/993/311 511/958/311
f 513/951/310 506/990/310 516/960/310
f 507/962/315 517/994/309 516/963/309
f 508/965/313 512/995/313 517/966/313
f 512/968/312 511/996/312 514/969/312
f 516/960/310 519/997/310 514/971/310
f 520/972/314 519/998/314 516/973/309
f 515/975/313 520/999/313 517/976/313
f 515/978/315 514/1000/315 503/979/315
f 514/971/310 519/997/310 518/938/310
f 520/980/314 504/1001/311 518/981/311
f 505/983/313 504/1002/313 520/984/313
