# Blender MTL File: 'om_pipes02e.blend'
# Material Count: 2

newmtl om_decals_03a
Ns 96.078431
Ka 1.000000 1.000000 1.000000
Kd 0.640000 0.640000 0.640000
Ks 0.500000 0.500000 0.500000
Ke 0.000000 0.000000 0.000000
Ni 1.000000
d 1.000000
illum 0
map_Kd C:\Program Files (x86)\Steam\SteamApps\common\Overload\OverloadLevelEditor\DecalTextures\om_decals_03a.png

newmtl om_decals_03a_NONE
Ns 96.078431
Ka 1.000000 1.000000 1.000000
Kd 0.640000 0.640000 0.640000
Ks 0.500000 0.500000 0.500000
Ke 0.000000 0.000000 0.000000
Ni 1.000000
d 1.000000
illum 0
map_Kd C:\\Program Files (x86)\\Steam\\SteamApps\\common\\Overload\\OverloadLevelEditor\\DecalTextures\\om_decals_03a.png
